<?xml version="1.0" encoding="utf-8"?>
<!-- Generator: Adobe Illustrator 18.0.0, SVG Export Plug-In . SVG Version: 6.00 Build 0)  -->
<!DOCTYPE svg PUBLIC "-//W3C//DTD SVG 1.1//EN" "http://www.w3.org/Graphics/SVG/1.1/DTD/svg11.dtd">
<svg version="1.1" id="_x32_1._Equal" xmlns="http://www.w3.org/2000/svg" xmlns:xlink="http://www.w3.org/1999/xlink" x="0px"
	 y="0px" width="18px" height="18px" viewBox="0 0 18 18" enable-background="new 0 0 18 18" xml:space="preserve">
<g>
	<path d="M2.00187,4.9987h14c0.55,0,1,0.45,1,1l0,0c0,0.55-0.45,1-1,1h-14c-0.55,0-1-0.45-1-1l0,0
		C1.00187,5.4487,1.45187,4.9987,2.00187,4.9987z"/>
</g>
<g>
	<path d="M2.00187,10.9987h14c0.55,0,1,0.45,1,1l0,0c0,0.55-0.45,1-1,1h-14c-0.55,0-1-0.45-1-1l0,0
		C1.00187,11.4487,1.45187,10.9987,2.00187,10.9987z"/>
</g>
</svg>
