<?xml version="1.0" encoding="utf-8"?>
<!-- Generator: Adobe Illustrator 18.0.0, SVG Export Plug-In . SVG Version: 6.00 Build 0)  -->
<!DOCTYPE svg PUBLIC "-//W3C//DTD SVG 1.1//EN" "http://www.w3.org/Graphics/SVG/1.1/DTD/svg11.dtd">
<svg version="1.1" id="Layer_1" xmlns="http://www.w3.org/2000/svg" xmlns:xlink="http://www.w3.org/1999/xlink" x="0px" y="0px"
	 width="52px" height="52px" viewBox="0 0 52 52" enable-background="new 0 0 52 52" xml:space="preserve">
<g id="_x36_8._Bank">
	<path d="M44,38h-1.5V20h0.91895c0.50195,0,1.4502-0.06641,2.16211-0.51123c0.58301-0.36377,0.91797-0.93066,0.91895-1.55664
		c0-0.62598-0.33398-1.19385-0.91797-1.55859L28.16406,5.51221C27.4502,5.06641,26.50195,5,26,5s-1.4502,0.06641-2.16309,0.51172
		L6.41846,16.37354C5.83447,16.73779,5.49951,17.30566,5.5,17.93213s0.33545,1.19385,0.91748,1.55566
		C7.13135,19.93359,8.0791,20,8.58057,20H9.5v18H8c-1.6543,0-3,1.3457-3,3v3c0,1.6543,1.3457,3,3,3h36c1.6543,0,3-1.3457,3-3v-3
		C47,39.3457,45.6543,38,44,38z M39.49609,38H36.5V20h3L39.49609,38z M18.5,20h3v18h-3V20z M24.5,20h3l-0.00391,18H24.5V20z
		 M30.5,20h3v18h-3V20z M25.38086,8.08154C25.42969,8.06055,25.65039,8,26,8c0.36426,0,0.57812,0.05469,0.5752,0.05762L40.91602,17
		H39.5h-3h-9h-3h-9h-3h-1.4165L25.38086,8.08154z M12.5,20h3l-0.00391,18H12.5V20z M43.99609,44H8v-3h4.5h3h9h3h9h3H44L43.99609,44z
		"/>
</g>
</svg>
