<?xml version="1.0" encoding="utf-8"?>
<!-- Generator: Adobe Illustrator 18.0.0, SVG Export Plug-In . SVG Version: 6.00 Build 0)  -->
<!DOCTYPE svg PUBLIC "-//W3C//DTD SVG 1.1//EN" "http://www.w3.org/Graphics/SVG/1.1/DTD/svg11.dtd">
<svg version="1.1" id="Layer_1" xmlns="http://www.w3.org/2000/svg" xmlns:xlink="http://www.w3.org/1999/xlink" x="0px" y="0px"
	 width="52px" height="52px" viewBox="0 0 52 52" enable-background="new 0 0 52 52" xml:space="preserve">
<g id="_x32_2._Calendar">
	<path d="M44,34.91156c0.00012-0.01025,0.00012-0.0199,0-0.03015V11.00006c0-1.65002-1.34998-3-3-3h-3V6.5
		C38,5.67139,37.32812,5,36.5,5S35,5.67139,35,6.5v1.50006H17V6.5C17,5.67139,16.32812,5,15.5,5C14.67139,5,14,5.67139,14,6.5
		v1.50006h-3c-1.64996,0-3,1.34998-3,3v32.99988c0,1.65002,1.35004,3,3,3h20.8811c0.00525,0.00006,0.01013,0.00299,0.01538,0.00299
		S31.90662,47,31.91187,46.99994H32v-0.01715c0.34784-0.02441,0.69092-0.1532,0.95703-0.41931l10.60645-10.60645
		c0.26611-0.26611,0.3949-0.60913,0.41931-0.95703H44V34.91156z M14,11.00006V12.5c0,0.82861,0.67139,1.5,1.5,1.5
		c0.82812,0,1.5-0.67139,1.5-1.5v-1.49994h18V12.5c0,0.82861,0.67188,1.5,1.5,1.5s1.5-0.67139,1.5-1.5v-1.49994h3V17H11v-5.99994H14
		z M11,20h30v12.00006h-9c-1.65002,0-3,1.34998-3,3v8.99988H11V20z M32,43.27832v-8.27826h8.27826L32,43.27832z"/>
</g>
</svg>
