<?xml version="1.0" encoding="utf-8"?>
<!-- Generator: Adobe Illustrator 18.0.0, SVG Export Plug-In . SVG Version: 6.00 Build 0)  -->
<!DOCTYPE svg PUBLIC "-//W3C//DTD SVG 1.1//EN" "http://www.w3.org/Graphics/SVG/1.1/DTD/svg11.dtd">
<svg version="1.1" id="Layer_1" xmlns="http://www.w3.org/2000/svg" xmlns:xlink="http://www.w3.org/1999/xlink" x="0px" y="0px"
	 width="52px" height="52px" viewBox="0 0 52 52" enable-background="new 0 0 52 52" xml:space="preserve">
<path d="M26,2C12.74518,2,2,12.74518,2,26s10.74518,24,24,24s24-10.74518,24-24C50,12.74512,39.25482,2,26,2z M5,26
	C5,14.42053,14.42053,5,26,5c5.25092,0,10.04565,1.95068,13.73151,5.14789L10.14789,39.73151C6.95068,36.04565,5,31.25092,5,26z
	 M26,47c-5.25067,0-10.0451-1.9505-13.73096-5.14746l29.5835-29.5835C45.0495,15.9549,47,20.74933,47,26
	C47,37.57947,37.57947,47,26,47z"/>
</svg>
