<?xml version="1.0" encoding="utf-8"?>
<!-- Generator: Adobe Illustrator 18.0.0, SVG Export Plug-In . SVG Version: 6.00 Build 0)  -->
<!DOCTYPE svg PUBLIC "-//W3C//DTD SVG 1.1//EN" "http://www.w3.org/Graphics/SVG/1.1/DTD/svg11.dtd">
<svg version="1.1" id="Layer_1" xmlns="http://www.w3.org/2000/svg" xmlns:xlink="http://www.w3.org/1999/xlink" x="0px" y="0px"
	 width="52px" height="52px" viewBox="0 0 52 52" enable-background="new 0 0 52 52" xml:space="preserve">
<g id="_x31_9._Download">
	<g>
		<path d="M24.93945,36.56348c0.29297,0.29297,0.67676,0.43945,1.06055,0.43945s0.76758-0.14648,1.06055-0.43945l11-11
			c0.58594-0.58545,0.58594-1.53564,0-2.12109c-0.58594-0.58594-1.53516-0.58594-2.12109,0L27.5,31.88184V11.5
			c0-0.82861-0.67188-1.5-1.5-1.5s-1.5,0.67139-1.5,1.5v20.38184l-8.43945-8.43945c-0.58594-0.58594-1.53516-0.58594-2.12109,0
			c-0.58594,0.58545-0.58594,1.53564,0,2.12109L24.93945,36.56348z"/>
		<path d="M45.5,34c-0.82843,0-1.5,0.67157-1.5,1.5h-0.00232L43.99609,43H8v-7.5C8,34.67157,7.32843,34,6.5,34S5,34.67157,5,35.5V43
			c0,1.6543,1.3457,3,3,3h36c1.6543,0,3-1.3457,3-3v-7.5C47,34.67157,46.32843,34,45.5,34z"/>
	</g>
</g>
</svg>
