<?xml version="1.0" encoding="utf-8"?>
<!-- Generator: Adobe Illustrator 18.0.0, SVG Export Plug-In . SVG Version: 6.00 Build 0)  -->
<!DOCTYPE svg PUBLIC "-//W3C//DTD SVG 1.1//EN" "http://www.w3.org/Graphics/SVG/1.1/DTD/svg11.dtd">
<svg version="1.1" id="Layer_1" xmlns="http://www.w3.org/2000/svg" xmlns:xlink="http://www.w3.org/1999/xlink" x="0px" y="0px"
	 width="52px" height="52px" viewBox="0 0 52 52" enable-background="new 0 0 52 52" xml:space="preserve">
<g>
	<path d="M26,2C12.74518,2,2,12.74518,2,26s10.74518,24,24,24s24-10.74518,24-24C50,12.74512,39.25482,2,26,2z M26,47
		C14.42053,47,5,37.57947,5,26S14.42053,5,26,5s21,9.42053,21,21S37.57947,47,26,47z"/>
	<path d="M32.35254,18.7002l-9.61432,11.41693l-5.17767-5.17767c-0.58594-0.58594-1.53516-0.58594-2.12109,0
		c-0.58594,0.58545-0.58594,1.53564,0,2.12109l6.33301,6.33301c0.0072,0.0072,0.01703,0.00775,0.02441,0.0144
		c0.02441,0.02356,0.04401,0.05029,0.07031,0.07251c0.28125,0.2373,0.62402,0.35254,0.96484,0.35254
		c0.42773,0,0.85156-0.18164,1.14844-0.53418l10.66699-12.66602c0.5332-0.63379,0.45215-1.58008-0.18164-2.11377
		C33.83203,17.98584,32.88672,18.06885,32.35254,18.7002z"/>
</g>
</svg>
