<?xml version="1.0" encoding="utf-8"?>
<!-- Generator: Adobe Illustrator 18.0.0, SVG Export Plug-In . SVG Version: 6.00 Build 0)  -->
<!DOCTYPE svg PUBLIC "-//W3C//DTD SVG 1.1//EN" "http://www.w3.org/Graphics/SVG/1.1/DTD/svg11.dtd">
<svg version="1.1" id="Layer_1" xmlns="http://www.w3.org/2000/svg" xmlns:xlink="http://www.w3.org/1999/xlink" x="0px" y="0px"
	 width="52px" height="52px" viewBox="0 0 52 52" enable-background="new 0 0 52 52" xml:space="preserve">
<g id="_x32_7._Setting">
	<g>
		<path d="M29.71387,49.625h-7.42773c-1.57422,0-2.85449-1.28125-2.85449-2.85547v-2.00977
			c-0.69629-0.24414-1.38184-0.52832-2.05078-0.85156l-1.42285,1.42285C14.87988,46.40918,13,46.41016,11.9209,45.33203
			L6.66846,40.0791c-1.1123-1.1123-1.11279-2.92383-0.00098-4.03711l1.42236-1.42285
			c-0.32227-0.66699-0.60693-1.35156-0.85205-2.0498H5.22998c-1.57471,0-2.85547-1.28125-2.85547-2.85547v-7.42773
			c0-1.57471,1.28076-2.85547,2.85547-2.85547h2.00684c0.24512-0.69775,0.52979-1.3833,0.85254-2.05176l-1.4209-1.42139
			c-0.53906-0.53809-0.83643-1.25488-0.83643-2.01807c0-0.7627,0.29688-1.47949,0.83594-2.01904l5.25195-5.25146
			c1.03955-1.04199,2.99365-1.04395,4.03711,0l1.4209,1.4209c0.66797-0.32275,1.35352-0.60742,2.05273-0.85254V5.23047
			c0-1.57471,1.28027-2.85547,2.85449-2.85547h7.42773c1.57422,0,2.85449,1.28076,2.85449,2.85547V7.2373
			c0.69922,0.24561,1.38379,0.53027,2.05176,0.85254l1.42188-1.42139c1.08496-1.07959,2.95996-1.07715,4.03809,0.00049
			l5.25293,5.25195c0.54004,0.54004,0.83691,1.25684,0.83691,2.01953c-0.00098,0.76318-0.29785,1.47998-0.83789,2.01904
			l-1.4209,1.42041c0.32227,0.66748,0.60742,1.35254,0.85254,2.05078h2.00781c1.57422,0,2.85449,1.28027,2.85449,2.85449v7.42773
			c0,1.57422-1.28027,2.85547-2.85449,2.85547h-2.00879c-0.24512,0.69727-0.53027,1.38184-0.85254,2.0498l1.42285,1.42285
			c1.11328,1.11328,1.11328,2.92383,0,4.03711l-5.25293,5.25195c-1.04102,1.04199-2.99316,1.04395-4.03711,0l-1.42285-1.42188
			c-0.66699,0.32227-1.35254,0.60742-2.05078,0.85156v2.00977C32.56836,48.34375,31.28809,49.625,29.71387,49.625z M22.43164,46.625
			h7.13672v-2.96094c0-0.66895,0.44336-1.25781,1.08691-1.44238c1.2207-0.34961,2.4043-0.84082,3.51855-1.46094
			c0.58301-0.32715,1.31445-0.22559,1.79004,0.25l2.09668,2.0957l5.04785-5.04688l-2.0957-2.0957
			c-0.47363-0.47363-0.57617-1.20312-0.25098-1.78809c0.62012-1.11719,1.1123-2.30273,1.46387-3.52246
			c0.18555-0.64258,0.77246-1.08496,1.44141-1.08496H46.625v-7.1377h-2.95801c-0.66895,0-1.25684-0.44287-1.44141-1.08594
			c-0.35156-1.22119-0.84375-2.40576-1.46289-3.52051c-0.32617-0.58545-0.22363-1.31641,0.25-1.79004l2.0957-2.09473
			l-5.04883-5.04736l-2.0957,2.0957c-0.47559,0.47363-1.20703,0.57373-1.79004,0.24951
			c-1.11328-0.61963-2.29785-1.11182-3.52051-1.4624c-0.64258-0.18457-1.08594-0.77295-1.08594-1.44189V5.375h-7.13672v2.95801
			c0,0.66895-0.44336,1.25732-1.08691,1.44189c-1.22168,0.35059-2.40625,0.84277-3.52051,1.4624
			c-0.58301,0.32471-1.31445,0.22607-1.79004-0.25l-2.09473-2.09473l-5.04639,5.04639l2.09473,2.09473
			c0.47363,0.47363,0.57617,1.20361,0.25049,1.78906c-0.62109,1.11768-1.11328,2.30273-1.46289,3.52148
			c-0.18457,0.64307-0.77295,1.08643-1.44189,1.08643h-2.958v7.13867H8.3335c0.66895,0,1.25732,0.44336,1.44189,1.08691
			c0.3501,1.21973,0.8418,2.40332,1.4624,3.51758c0.32617,0.58496,0.22412,1.31641-0.25,1.79004l-2.09619,2.0957l5.04785,5.04785
			l2.09668-2.09668c0.47266-0.47559,1.2041-0.57617,1.78906-0.25098c1.12109,0.62305,2.30469,1.11523,3.51855,1.46191
			c0.64453,0.18457,1.08789,0.77246,1.08789,1.44238V46.625H22.43164z"/>
	</g>
	<path d="M25.99993,21.5c2.48131,0,4.5,2.01869,4.5,4.5s-2.01869,4.5-4.5,4.5s-4.5-2.01869-4.5-4.5S23.51862,21.5,25.99993,21.5
		 M25.99993,18.5c-4.14214,0-7.5,3.35786-7.5,7.5s3.35786,7.5,7.5,7.5s7.5-3.35786,7.5-7.5S30.14207,18.5,25.99993,18.5
		L25.99993,18.5z"/>
</g>
</svg>
