<?xml version="1.0" encoding="utf-8"?>
<!-- Generator: Adobe Illustrator 18.0.0, SVG Export Plug-In . SVG Version: 6.00 Build 0)  -->
<!DOCTYPE svg PUBLIC "-//W3C//DTD SVG 1.1//EN" "http://www.w3.org/Graphics/SVG/1.1/DTD/svg11.dtd">
<svg version="1.1" id="Layer_1" xmlns="http://www.w3.org/2000/svg" xmlns:xlink="http://www.w3.org/1999/xlink" x="0px" y="0px"
	 width="18px" height="18px" viewBox="0 0 18 18" enable-background="new 0 0 18 18" xml:space="preserve">
<path d="M13.83014,10.63397L11,9l2.83014-1.63397C14.30646,7.091,14.47113,6.47632,14.19617,6
	c-0.27502-0.47632-0.88971-0.64105-1.36603-0.36603L10,7.26794V4c0-0.54999-0.45001-1-1-1S8,3.45001,8,4v3.26794L5.16986,5.63397
	C4.69354,5.35895,4.07886,5.52368,3.80383,6C3.52887,6.47632,3.69354,7.091,4.16986,7.36603L7,9l-2.83014,1.63397
	C3.69354,10.909,3.52887,11.52368,3.80383,12c0.27502,0.47632,0.88971,0.64099,1.36603,0.36603L8,10.73206V14
	c0,0.54999,0.45001,1,1,1s1-0.45001,1-1v-3.26794l2.83014,1.63397c0.47632,0.27496,1.091,0.11029,1.36603-0.36603
	C14.47113,11.52368,14.30646,10.909,13.83014,10.63397z"/>
</svg>
