[{
	"platformName" : "platform1",
	"prodID": 10,
	"product_ID" : 10,
	"product_name": "product1",
	"product_desc": "description",
	"dateCreated": "2016-11-05 09:46:13",
	"productLink" : 101,
	"orgId" : 1024,
    "orgName" : "Organization1",
    "roleName" : "ORG ADMIN",
    "roleId" : 4
},
{
	"platformName" : "adminPlatform",
	"prodID": 10,
	"product_ID" : 10,
	"product_name": "product2",
	"product_desc": "description",
	"dateCreated": "2/1/2012 09:46:13",
	"productLink" : 102,
	"orgId" : 1024,
    "orgName" : "Organization1",
    "roleName" : "ORG ADMIN",
    "roleId" : 4
},
{
	"platformName" : "platform3",
	"prodID": 10,
	"product_ID" : 10,
	"product_name": "product3",
	"product_desc": "description",
	"dateCreated": "10/10/2012 09:46:13",
	"productLink" : 103,
	"orgId" : 1024,
    "orgName" : "Organization1",
    "roleName" : "ORG ADMIN",
    "roleId" : 4
},
{
	"platformName" : "platform4",
	"prodID": 10,
	"product_ID" : 10,
	"product_name": "product4",
	"product_desc": "description",
	"dateCreated": "12/1/2012 12:46:13",
	"productLink" : 104,
	"orgId" : 1024,
    "orgName" : "Organization1",
    "roleName" : "ORG ADMIN",
    "roleId" : 4
},
{
	"platformName" : "platform5",
	"prodID": 10,
	"product_ID" : 10,
	"product_name": "product5",
	"product_desc": "description",
	"dateCreated": "12/12/2012 01:46:13",
	"productLink" : 105,
	"orgId" : 1024,
    "orgName" : "Organization1",
    "roleName" : "ORG ADMIN",
    "roleId" : 4
},
{
	"platformName" : "platform6",
	"prodID": 10,
	"product_ID" : 10,
	"product_name": "product6",
	"product_desc": "description",
	"dateCreated": "12/10/2012 03:46:13",
	"productLink" : 106,
	"orgId" : 1024,
    "orgName" : "Organization1",
    "roleName" : "ORG ADMIN",
    "roleId" : 4
},
{
	"platformName" : "platform7",
	"prodID": 10,
	"product_ID" : 10,
	"product_name": "product7",
	"product_desc": "description",
	"dateCreated": "2/1/2012 16:46:13",
	"productLink" : 107,
	"orgId" : 1024,
    "orgName" : "Organization1",
    "roleName" : "ORG ADMIN",
    "roleId" : 4
},
{
	"platformName" : "platform8",
	"prodID": 10,
	"product_ID" : 10,
	"product_name": "product8",
	"product_desc": "description",
	"dateCreated": "10/10/2012 09:40:13",
	"productLink" : 108,
	"orgId" : 1024,
    "orgName" : "Organization1",
    "roleName" : "ORG ADMIN",
    "roleId" : 4
},
{
	"platformName" : "platform9",
	"prodID": 10,
	"product_ID" : 10,
	"product_name": "product9",
	"product_desc": "description",
	"dateCreated": "12/1/2012 09:06:13",
	"productLink" : 109,
	"orgId" : 1024,
    "orgName" : "Organization1",
    "roleName" : "ORG ADMIN",
    "roleId" : 4
},
{
	"platformName" : "platform10",
	"prodID": 10,
	"product_ID" : 10,
	"product_name": "product10",
	"product_desc": "description",
	"dateCreated": "12/12/2012 18:36:13",
	"productLink" : 110,
	"orgId" : 1024,
    "orgName" : "Organization1",
    "roleName" : "ORG ADMIN",
    "roleId" : 4
}
]