<?xml version="1.0" encoding="utf-8"?>
<!-- Generator: Adobe Illustrator 18.0.0, SVG Export Plug-In . SVG Version: 6.00 Build 0)  -->
<!DOCTYPE svg PUBLIC "-//W3C//DTD SVG 1.1//EN" "http://www.w3.org/Graphics/SVG/1.1/DTD/svg11.dtd">
<svg version="1.1" id="Layer_1" xmlns="http://www.w3.org/2000/svg" xmlns:xlink="http://www.w3.org/1999/xlink" x="0px" y="0px"
	 width="52px" height="52px" viewBox="0 0 52 52" enable-background="new 0 0 52 52" xml:space="preserve">
<g id="_x34_._Cards-filled">
	<path d="M47,9.5H11c-1.65002,0-3,1.34998-3,3v3H5c-1.65002,0-3,1.34998-3,3v2h42v-2c0-1.65002-1.34998-3-3-3H11v-3h36v21h-3v-10H2
		v16c0,1.64996,1.34998,3,3,3h36c1.65002,0,3-1.35004,3-3v-3h3c1.65002,0,3-1.35004,3-3v-21C50,10.84998,48.65002,9.5,47,9.5z"/>
</g>
</svg>
