<?xml version="1.0" encoding="utf-8"?>
<!-- Generator: Adobe Illustrator 18.0.0, SVG Export Plug-In . SVG Version: 6.00 Build 0)  -->
<!DOCTYPE svg PUBLIC "-//W3C//DTD SVG 1.1//EN" "http://www.w3.org/Graphics/SVG/1.1/DTD/svg11.dtd">
<svg version="1.1" id="Layer_1" xmlns="http://www.w3.org/2000/svg" xmlns:xlink="http://www.w3.org/1999/xlink" x="0px" y="0px"
	 width="52px" height="52px" viewBox="0 0 52 52" enable-background="new 0 0 52 52" xml:space="preserve">
<g id="_x33_._Card_-filled">
	<g>
		<g>
			<path d="M2,18.5v21c0,1.64996,1.34998,3,3,3h42c1.65002,0,3-1.35004,3-3v-21H2z"/>
		</g>
		<g>
			<path d="M50,15.5v-3c0-1.65002-1.34998-3-3-3H5c-1.65002,0-3,1.34998-3,3v3H50z"/>
		</g>
	</g>
</g>
</svg>
