<?xml version="1.0" encoding="utf-8"?>
<!-- Generator: Adobe Illustrator 18.0.0, SVG Export Plug-In . SVG Version: 6.00 Build 0)  -->
<!DOCTYPE svg PUBLIC "-//W3C//DTD SVG 1.1//EN" "http://www.w3.org/Graphics/SVG/1.1/DTD/svg11.dtd">
<svg version="1.1" id="Layer_1" xmlns="http://www.w3.org/2000/svg" xmlns:xlink="http://www.w3.org/1999/xlink" x="0px" y="0px"
	 width="52px" height="52px" viewBox="0 0 52 52" enable-background="new 0 0 52 52" xml:space="preserve">
<g id="_x35_3._Entertainment-filled">
	<path d="M48.27386,18.57538l-5.30328-5.30328c-0.58582,0.58575-1.35358,0.87866-2.12134,0.87866s-1.53552-0.29291-2.12134-0.87866
		c-1.17157-1.17157-1.17157-3.07111,0-4.24268l-5.30328-5.30328c-0.58337-0.58337-1.35236-0.87506-2.12134-0.87506
		s-1.5379,0.29169-2.12128,0.87506L3.72614,29.18195c-1.16675,1.16675-1.16675,3.07593,0,4.24268l5.30328,5.30328
		c0.58582-0.58582,1.35358-0.87866,2.12134-0.87866s1.53552,0.29285,2.12134,0.87866c1.17157,1.17157,1.17157,3.07104,0,4.24261
		l5.30328,5.30334c0.58337,0.58331,1.35236,0.875,2.12134,0.875s1.53796-0.29163,2.12128-0.875l25.45587-25.45587
		C49.44061,21.65125,49.44055,19.74207,48.27386,18.57538z M14.33301,29.18164c-0.29297,0.29297-0.67676,0.43945-1.06055,0.43945
		s-0.76758-0.14648-1.06055-0.43945l-2.12207-2.12109l2.12109-2.12158l2.12207,2.12158
		C14.91895,27.64551,14.91895,28.5957,14.33301,29.18164z M20.69629,35.5459c-0.29297,0.29297-0.67676,0.43945-1.06055,0.43945
		s-0.76758-0.14648-1.06055-0.43945l-2.12109-2.1211c-0.58594-0.58594-0.58594-1.53516,0-2.12109
		c0.58594-0.58593,1.53516-0.58594,2.12109,0l2.12109,2.12109C21.28223,34.01074,21.28223,34.95996,20.69629,35.5459z
		 M24.93945,41.91016l-2.12109-2.12207c-0.58594-0.58594-0.58594-1.53613,0-2.12109c0.58594-0.58594,1.53516-0.58594,2.12109,0
		l2.12109,2.12207L24.93945,41.91016z"/>
</g>
</svg>
