{
	"swagger": "2.0",
	"info": {
		"title": "ATM Locator",
		"description": "<p><strong>ATM Locator</strong> enables you to search for ATMs that accept American Express Cards in a given area using location-based search criteria such as address, city, ZIP code, or a geolocation.</p><p>The ATM Locator provides two matching endpoints which enable searching for ATMs by either an Address or a Geolocation.<ul><li><samp>HEAD /atms</samp>: Allows for all search filters found in <samp>GET /atms</samp> yet returns only the <samp>x-total-count</samp> header.</li><li><samp>GET /atms</samp>: Provides a full featured search interface allowing for filtering based on nearly all available properties.</li></ul>Pagination is optional through the use of the <samp>limit</samp> and <samp>offset</samp> arguments.</p><p><em>Note: <samp>limit</samp> defaults to and has a maximum value of 100 records. If <samp>x-total-count</samp> is greater than 100, use <samp>offset</samp> to page through the complete result set.</em></p>",
		"version": "1.0.0",
		"x-modified": "Oct 10, 2016"
	},
	"x-basePaths": [
		{ "basePath": "/servicing/v1/banks"}
	],
	"x-uris" : [
		{"uri": "/servicing/v1/banks/atms"}
	],
	"x-security": {
		"oneWayTLS_AppKey": true,
		"oneWayTLS_HMAC": false,
		"oAuth": false
	},
	"x-samples": [
		{
			"name": "Java client library and samples",
			"href": "https://github.com/americanexpress/amex-api-java-client-core"
		},
		{
			"name": ".NET client library and samples",
			"href": "https://github.com/americanexpress/amex-api-dotnet-client-core"
		}
	],
	"schemes": [
		"https"
	],
	"consumes": [
		"application/json"
	],
	"paths": {
		"/atms": {
			"head": {
				"summary": "ATM Locator - ATM Count",
				"description": "<p>Used to validate the result count of a specified query without incurring the overhead of the payload.</p><p>Please see the <samp>GET /atms</samp> specification for details.</p>",
				"parameters": [],
				"responses": {
					"200" : {
						"description": "<p>Provides the result count for the specified query.</p>",
						"headers": {
							"x-total-count": {
								"description": "Total number of ATMs that will be returned.",
								"type": "number"
							}
						}
					}
				},
				"x-tryit": [
					{
						"name": "Geocode - California",
						"requestHeaders": "HEAD https://api.qasb.americanexpress.com/servicing/v1/banks/atms?radius_unit=MI&radius=5&latitude=37.61&longitude=-122.37&limit=20&offset=1 HTTP/1.1<br />x-amex-api-key : A1W4LlXwgzH54HJFhihiPIKm4xdJARjk<br />x-amex-request-id: AA3434342323<br />Accept: application/json",
						"requestBody": "",
						"responseHeaders": "HTTP/1.1 200 OK<br />Content-Type: application/json<br />x-total-count: 655<br />x-amex-request-id: AA3434342323",
						"responseBody": "",
						"responseCode": "200",
						"responseMessage": "OK"
					},
					{
						"name": "Filter - Braille enabled",
						"requestHeaders": "HEAD https://api.qasb.americanexpress.com/servicing/v1/banks/atms?radius_unit=MI&radius=5&latitude=33.66&longitude=-112.10&braille_enabled=Y&limit=20 HTTP/1.1<br />x-amex-api-key : A1W4LlXwgzH54HJFhihiPIKm4xdJARjk<br />x-amex-request-id: AA3434342323<br />Accept: application/json",
						"requestBody": "",
						"responseHeaders": "HTTP/1.1 200 OK<br />Content-Type: application/json<br />x-total-count: 19<br />x-amex-request-id: AA3434342323",
						"responseBody": "",
						"responseCode": "200",
						"responseMessage": "OK"
					}
				]
			},
			"get": {
				"summary": "ATM Locator - ATM Search",
				"description": "<p>This resource will return a list of ATM locations with their properties. The search can be performed for a given location and search radius. The search can be further filtered based on different properties of the ATM location. Filter properties are optional, and unless specified, do not affect the search results.</p><p>The ATM Locator has the potential to return many ATMs and therefore supports paging. You can also use <samp>HEAD /atms</samp> to determine the number of ATMs for a specific query before requesting the data.</p>",
				"produces": [
					"application/json"
				],
				"parameters": [
					{
						"in": "header",
						"name": "x-amex-api-key",
						"description": "<p>Your application's Client Key for accessing this API.</p><p><em><a href='#/essentials#apisecurity'>Learn more about API Key security</a></em></p><p>e.g., <code>cOthV4ao4Xxho1BzrIXcOf8CTJXUONdj</code></p>",
						"required": true,
						"type": "string",
						"maxLength": 36
					},
					{
						"in": "header",
						"name": "x-amex-request-id",
						"description": "<p>Unique ID <strong>generated by the caller.</p><p>e.g., <code>AA3434342323</code></p>",
						"required": true,
						"type": "string"
					},
					{
						"name": "latitude",
						"in": "query",
						"description": "<p><strong>Required if address is not used.</strong></p><p>Latitude of the point of origin around which you would like to search.</p><p>e.g., <code>-1.5459487</code></p>",
						"required": false,
						"type": "number"
					},
					{
						"name": "longitude",
						"in": "query",
						"description": "<p><strong>Required if address is not used.</strong></p><p>Longitude of the point of origin around which you would like to search.</p><p>e.g., <code>52.2768309</code></p>",
						"required": false,
						"type": "number"
					},
					{
						"name": "address",
						"in": "query",
						"description": "<p><strong>Required if longitude/latitude is not used.</strong></p><p>Country specific address representing the point of origin around which you would like to search. Details should include: street, city, and provincial details as appropriate.</p><p>e.g., <code>200 Vesey St, New York, NY 10285</code></p><p><em>Note: If longitude/latitude are supplied, they take the priority over address as the origin of the search.</em></p>",
						"required": false,
						"type": "string"
					},
					{
						"name": "country_code",
						"in": "query",
						"description": "<p><strong>Required if address is used.</strong></p><p>Country code of the point of origin.</p><p>Format: ISO Alpha-2 Country (see: <a href='http://www.iso.org/iso/home/standards/country_codes.htm'>ISO 3166</a>)</p><p>e.g., <code>GB</code></p>",
						"required": false,
						"type": "string",
						"maxLength": 2
					},
					{
						"name": "state",
						"in": "query",
						"description": "<p><strong>Required if address is used.</strong></p><p>State of the point of origin.</p><p>Format: ISO Alpha-2 State </p><p>e.g., <code>MI</code></p>",
						"required": false,
						"type": "string",
						"maxLength": 2
					},
					{
						"name": "postal_code",
						"in": "query",
						"description": "<p><strong>Required if address is used.</strong></p><p>Postal code of the point of origin.</p><p>e.g., <code>14356</code></p>",
						"required": false,
						"type": "string",
						"maxLength": 10
					},
					{
						"name": "radius",
						"in": "query",
						"description": "<p>Search radius. </p><p><em>Default value: 50</em></p><p>e.g., <code>5</code></p>",
						"required": false,
						"type": "number"
					},
					{
						"name": "radius_unit",
						"in": "query",
						"description": "<p>Unit of search radius. Accepted Values:<ui><li><strong>MI</strong> = Miles</li><li><strong>KM</strong> = Kilometers</li></ul></p><p><em>Default value: MI</em></p><p>e.g., <code>MI</code></p>",
						"required": false,
						"type": "string",
						"maxLength": 2
					},
					{
						"name": "limit",
						"in": "query",
						"description": "<p><strong>Supporting paging:</strong></p><p>Limits the number of objects returned, up to the specified value.</p><p><em>Default: 100, <strong>Max:</strong> 100</em></p><p>e.g., <code>20</code></p>",
						"required": false,
						"type": "number"
					},
					{
						"name": "offset",
						"in": "query",
						"description": "<p><strong>Supporting paging:</strong></p><p>The zero based starting position of the first object returned from within the total result set, automatically adjusted to the start of a page based on the value of <samp>limit</samp>.</p><p>e.g., <code>40</code> could be used to retrieve page 3 if using a <samp>limit</samp> of <code>20</code>.</p>",
						"required": false,
						"type": "number"
					},
					{
						"name": "name",
						"in": "query",
						"description": "<p>Name of the ATM.</p><p>e.g., <code>THE WINDMILL</code></p>",
						"required": false,
						"type": "string",
						"maxLength": 150
					},
					{
						"name": "restricted_access ",
						"in": "query",
						"description": "<p>Indicates whether access is restricted in any way. Example: To access the ATM after hours, the customer must be a customer of the bank in which the ATM is located.</p><p><em>No default provided, only include if you want to filter by this property.</em></p><p>e.g., <code>true</code></p>",
						"required": false,
						"type": "boolean"
					},
					{
						"name": "wheelchair_access",
						"in": "query",
						"description": "<p>Indicates whether the ATM is accessible for someone with disabilities or in a wheelchair.</p><p><em>No default provided, only include if you want to filter by this property.</em></p><p>e.g., <code>true</code></p>",
						"required": false,
						"type": "boolean"
					},
					{
						"name": "braille_enabled",
						"in": "query",
						"description": "<p>Indicates whether audio or Braille is available for this ATM.</p><p><em>No default provided, only include if you want to filter by this property.</em></p><p>e.g., <code>true</code></p>",
						"required": false,
						"type": "boolean"
					},
					{
						"name": "no_fee",
						"in": "query",
						"description": "<p>Indicates whether a surcharge/fee may be incurred for using this ATM.</p><p><em>No default provided, only include if you want to filter by this property.</em></p><p>e.g., <code>true</code></p>",
						"required": false,
						"type": "boolean"
					},
					{
						"name": "chip",
						"in": "query",
						"description": "<p>Indicates whether the ATM supports chip-enabled cards.</p><p><em>No default provided, only include if you want to filter by this property.</em></p><p>e.g., <code>true</code></p>",
						"required": false,
						"type": "boolean"
					},
					{
						"name": "pin",
						"in": "query",
						"description": "<p>Indicates whether PIN management is enabled at this ATM. PIN management may allow the Card Member to change their PIN and potentially perform other actions.</p><p><em>No default provided, only include if you want to filter by this property.</em></p><p>e.g., <code>true</code></p>",
						"required": false,
						"type": "boolean"
					},
					{
						"name": "balance_inquiry",
						"in": "query",
						"description": "<p>Indicates whether a Card Member can check their balance at this ATM.</p><p><em>No default provided, only include if you want to filter by this property.</em></p><p>e.g., <code>true</code></p>",
						"required": false,
						"type": "boolean"
					},
					{
						"name": "deposit_accepting",
						"in": "query",
						"description": "<p>Indicates whether the ATM accepts deposits.</p><p><em>No default provided, only include if you want to filter by this property.</em></p><p>e.g., <code>true</code></p>",
						"required": false,
						"type": "boolean"
					},
					{
						"name": "contactless",
						"in": "query",
						"description": "<p>Indicates whether this ATM allows contactless transactions.</p><p><em>No default provided, only include if you want to filter by this property.</em></p><p>e.g., <code>true</code></p>",
						"required": false,
						"type": "boolean"
					},
					{
						"name": "multi_currency",
						"in": "query",
						"description": "<p>Indicates whether this ATM dispenses multiple currencies.</p><p><em>No default provided, only include if you want to filter by this property.</em></p><p>e.g., <code>true</code></p>",
						"required": false,
						"type": "boolean"
					},
					{
						"name": "withdraw_limit",
						"in": "query",
						"description": "<p>Indicates whether the ATM has a withdrawal limit.</p><p><em>No default provided, only include if you want to filter by this property.</em></p><p>e.g., <code>true</code></p>",
						"required": false,
						"type": "boolean"
					},
					{
						"name": "mobile_top_up",
						"in": "query",
						"description": "<p>Indicates whether a Card Member can top up their mobile at this ATM.</p><p><em>No default provided, only include if you want to filter by this property.</em></p><p>e.g., <code>true</code></p>",
						"required": false,
						"type": "boolean"
					}
				],
				"responses": {
					"200" : {
						"description": "<p>Request processed successfully.</p><p>Upon a <span class='label label-success'>200</span>, an array of ATMs that match the specified criteria will be returned.",
						"headers": {
							"x-total-count": {
								"description": "Total number of ATMs found within the specified search criteria.",
								"type": "number"
							},
							"x-amex-request-id": {
								"description": "The Unique ID sent with the Request.",
								"type": "string"
							}
						},
						"schema": {
							"type": "object",
							"properties": {
								"ATMs": {
									"type": "array",
									"items": {
										"type": "object"
									},
									"properties": {
										"identity": {
											"type": "object",
											"properties": {
												"name": {
													"type": "string",
													"description": "<p>Name of the ATM.</p><p>e.g., <code>THE WINDMILL</code></p>"
												},
												"terminal_id": {
													"description": "<p>Terminal ID of the ATM.</p><p>e.g., <code>9422237248</code></p>",
													"type": "string"
												}
											}
										},
										"geolocation": {
											"type": "object",
											"properties": {
												"latitude": {
													"description": "<p>e.g., <code>-1.5459487</code></p>",
													"type": "number"
												},
												"longitude": {
													"description": "<p>e.g., <code>52.2768309</code></p>",
													"type": "number"
												},
												"distance": {
													"description": "Distance from origin to ATM.<p>e.g., <code>0.9062</code></p>",
													"type": "number"
												}
											}
										},
										"address": {
											"type": "object",
											"properties": {
												"street": {
													"description": "<p>e.g., <code>TACHBROOK ROAD</code></p>",
													"type": "string"
												},
												"sub_division": {
													"description": "<p>e.g., <code>LEAMINGTON SPA</code></p>",
													"type": "string"
												},
												"airport_code": {
													"description": "<p>International airport code.</p><p>Format: IATA Alpha-3 (see: <a href='https://www.world-airport-codes.com/'>World Airport Codes</a>)</p><p>e.g., <code>JCA</code></p>",
													"type": "string"
												},
												"city": {
													"description": "<p>e.g., <code>LEAMINGTON SPA</code></p>",
													"type": "string"
												},
												"state": {
													"description": "<p>e.g., <code>UNITED KINGDOM</code></p>",
													"type": "string"
												},
												"postal_code": {
													"description": "<p>e.g., <code>CV31 3DD</code></p>",
													"type": "string"
												},
												"country_code": {
													"description": "<p>e.g., <code>GB</code></p>",
													"type": "string"
												},
												"country_name": {
													"description": "<p>e.g., <code>UNITED KINGDOM</code></p>",
													"type": "string"
												}
											}
										},
										"attributes": {
											"type": "object",
											"properties": {
												"bank_name": {
													"description": "<p>Name of the bank hosting the ATM.</p><p>e.g., <code>ABC BANK</code></p>",
													"type": "string"
												},
												"routing_number": {
													"description": "<p>Routing number of the bank.</p><p>e.g., <code>9422237248</code></p>",
													"type": "number"
												},
												"hours": {
													"description": "<p>Hours during which the ATM is accessible.</p><p>e.g., <code>24x7</code></p>",
													"type": "string"
												},
												"multi_currency": {
													"description": "<p><em>Please see <em><strong>Properties</strong></em> above for description.</em></p>",
													"type": "boolean"
												},
												"deposit_accepting": {
													"description": "<p><em>Please see <em><strong>Properties</strong></em> above for description.</em></p>",
													"type": "boolean"
												},
												"withdraw_limit": {
													"description": "<p><em>Please see <em><strong>Properties</strong></em> above for description.</em></p>",
													"type": "boolean"
												},
												"balance_inquiry": {
													"description": "<p><em>Please see <em><strong>Properties</strong></em> above for description.</em></p>",
													"type": "boolean"
												},
												"no_fee": {
													"description": "<p><em>Please see <em><strong>Properties</strong></em> above for description.</em></p>",
													"type": "boolean"
												},
												"wheelchair_access": {
													"description": "<p><em>Please see <em><strong>Properties</strong></em> above for description.</em></p>",
													"type": "boolean"
												},
												"restricted_access": {
													"description": "<p><em>Please see <em><strong>Properties</strong></em> above for description.</em></p>",
													"type": "boolean"
												},
												"braille_enabled": {
													"description": "<p><em>Please see <em><strong>Properties</strong></em> above for description.</em></p>",
													"type": "boolean"
												},
												"contactless": {
													"description": "<p><em>Please see <em><strong>Properties</strong></em> above for description.</em></p>",
													"type": "boolean"
												},
												"pin": {
													"description": "<p><em>Please see <em><strong>Properties</strong></em> above for description.</em></p>",
													"type": "boolean"
												},
												"chip": {
													"description": "<p><em>Please see <em><strong>Properties</strong></em> above for description.</em></p>",
													"type": "boolean"
												},
												"mobile_top_up": {
													"description": "<p><em>Please see <em><strong>Properties</strong></em> above for description.</em></p>",
													"type": "boolean"
												}
											}
										}
									}
								},
								"_link": {
									"type": "array",
									"items": {
										"type": "object"
									},
									"properties": {
										"rel": {
											"type": "string",
											"maxLength": 10,
											"description": "<p>Link relationship to the previous request. Possible values include:<ul><li>next</li><li>previous</li></ul></p><p>e.g., <code>next</code></p>"
										},
										"href": {
											"type": "string",
											"maxLength": 2000,
											"description": "<p>URI for the link</p><p>e.g., <code>/locations/atms?offset=40&limit=20</p>"
										},
										"method": {
											"type": "string",
											"maxLength": 6,
											"description": "<p>HTTP Method.</p><p>e.g., <code>GET</code></p>"
										}
									}
								}
							}
						}
					},
					"400": {
						"description": "Bad Request",
						"headers": {
							"x-amex-request-id": {
								"description": "The Unique ID sent with the Request.",
								"type": "string"
							}
						},
						"schema": {
							"type": "object",
							"properties": {
								"error_code": {
									"type": "string",
									"maxLength": 6,
									"description": "<p>Detailed Error Code.</p><p>Please see <a href='#/essentials#errorcodes'>Standard Error Codes</a> for additional details.</p><p>e.g., <code>104010</code></p>"
									},
								"error_type": {
									"type": "string",
									"description": "<p>Brief error description.</p><p>e.g., <code>invalid_request</code></p>"
									},
								"error_description": {
									"type": "string",
									"description": "<p>Human-friendly detailed error description.</p><p>e.g., <code>Invalid request data or missing mandatory parameters</code></p>"
									},
								"more_info": {
									"type": "object",
									"description": "<p>Additional information related to the error. This could include low-level error codes and information.</p><p>e.g., <code>1006 No data found for search criteria</code></p>",
									"properties": {
										"response_code": {
											"type": "string",
											"description": "<p>Detailed error code.</p><p>e.g., <code>1007</code></p>",
											"x-required": false
										},
										"response_msg": {
											"type": "string",
											"description": "<p>Human-friendly detailed error description.</p><p>e.g., <code>Mandatory elements missing in request</code></p>",
											"x-required": false
										}
									},
									"x-required": false
								}
							}
						}
					},
					"401": {
						"description": "Unauthorized. Indicates a failure within the security credentials.",
						"headers": {
							"x-amex-request-id": {
								"description": "The Unique ID sent with the Request.",
								"type": "string"
							}
						},
						"schema": {
							"type": "object",
							"properties": {
								"error_code": {
									"type": "string",
									"maxLength": 6,
									"description": "<p>Detailed Error Code.</p><p>Please see <a href='#/essentials#errorcodes'>Standard Error Codes</a> for additional details.</p><p>e.g., <code>104010</code></p>"
									},
								"error_type": {
									"type": "string",
									"description": "<p>Brief error description.</p><p>e.g., <code>unauthorized</code></p>"
									},
								"error_description": {
									"type": "string",
									"description": "<p>Human-friendly detailed error description.</p><p>e.g., <code>Invalid API Key identified on the gateway</code></p>"
									}
							}
						}
					},
					"404": {
						"description": "Not found",
						"headers": {
							"x-amex-request-id": {
								"description": "The Unique ID sent with the Request.",
								"type": "string"
							}
						},
						"schema": {
							"type": "object",
							"properties": {
								"error_code": {
									"type": "string",
									"maxLength": 6,
									"description": "<p>Detailed Error Code.</p><p>Please see <a href='#/essentials#errorcodes'>Standard Error Codes</a> for additional details.</p><p>e.g., <code>104040</code></p>"
									},
								"error_type": {
									"type": "string",
									"description": "<p>Brief error description.</p><p>e.g., <code>not_found</code></p>"
									},
								"error_description": {
									"type": "string",
									"description": "<p>Human-friendly detailed error description.</p><p>e.g., <code>Requested resource not found</code></p>"
									},
								"more_info": {
									"type": "object",
									"description": "<p>Additional information related to the error. This could include low-level error codes and information.</p><p>e.g., <code>1006 No data found for search criteria</code></p>",
									"properties": {
										"response_code": {
											"type": "string",
											"description": "<p>Detailed error code.</p><p>e.g., <code>1006</code></p>",
											"x-required": false
										},
										"response_msg": {
											"type": "string",
											"description": "<p>Human-friendly detailed error description.</p><p>e.g., <code>No data found for search criteria</code></p>",
											"x-required": false
										}
									},
									"x-required": false
								}
							}
						}
					},
					"405": {
						"description": "Invalid HTTP Verb",
						"headers": {
							"x-amex-request-id": {
								"description": "The Unique ID sent with the Request.",
								"type": "string"
							}
						},
						"schema": {
							"type": "object",
							"properties": {
								"error_code": {
									"type": "string",
									"maxLength": 6,
									"description": "<p>Detailed Error Code.</p><p>Please see <a href='#/essentials#errorcodes'>Standard Error Codes</a> for additional details.</p><p>e.g., <code>104050</code></p>"
									},
								"error_type": {
									"type": "string",
									"description": "<p>Brief error description.</p><p>e.g., <code>invalid_http_verb</code></p>"
									},
								"error_description": {
									"type": "string",
									"description": "<p>Human-friendly detailed error description.</p><p>e.g., <code>Invalid HTTP verb for the requested resource</code></p>"
									}
							}
						}
					},
					"429": {
						"description": "Too Many Requests",
						"headers": {
							"x-amex-request-id": {
								"description": "The Unique ID sent with the Request.",
								"type": "string"
							}
						},
						"schema": {
							"type": "object",
							"properties": {
								"error_code": {
									"type": "string",
									"maxLength": 6,
									"description": "<p>Detailed Error Code.</p><p>Please see <a href='#/essentials#errorcodes'>Standard Error Codes</a> for additional details.</p><p>e.g., <code>104290</code></p>"
									},
								"error_type": {
									"type": "string",
									"description": "<p>Brief error description.</p><p>e.g., <code>rate_limit_violation</code></p>"
									},
								"error_description": {
									"type": "string",
									"description": "<p>Human-friendly detailed error description.</p><p>e.g., <code>Exceeded configured rate limit for the API, please try again later</code></p>"
									}
							}
						}
					},
					"500": {
						"description": "Internal Error. An error has occurred within the American Express systems.",
						"headers": {
							"x-amex-request-id": {
								"description": "The Unique ID sent with the Request.",
								"type": "string"
							}
						},
						"schema": {
							"type": "object",
							"properties": {
								"error_code": {
									"type": "string",
									"maxLength": 6,
									"description": "<p>Detailed Error Code.</p><p>Please see <a href='#/essentials#errorcodes'>Standard Error Codes</a> for additional details.</p><p>e.g., <code>105000</code></p>"
									},
								"error_type": {
									"type": "string",
									"description": "<p>Brief error description.</p><p>e.g., <code>internal_error</code></p>"
									},
								"error_description": {
									"type": "string",
									"description": "<p>Human-friendly detailed error description.</p><p>e.g., <code>Severe internal server error occurred</code></p>"
									},
								"more_info": {
									"type": "object",
									"description": "<p>Additional information related to the error. This could include low-level error codes and information.</p><p>e.g., <code>INQ2002 Card is not eligible for the Program</code></p>",
									"properties": {
										"response_code": {
											"type": "string",
											"description": "<p>Detailed error code.</p><p>e.g., <code>1006</code></p>",
											"x-required": false
										},
										"response_msg": {
											"type": "string",
											"description": "<p>Human-friendly detailed error description.</p><p>e.g., <code>No data found for search criteria</code></p>",
											"x-required": false
										}
									},
									"x-required": false
								}
							}
						}
					},
					"503": {
						"description": "Service Unavailable",
						"headers": {
							"x-amex-request-id": {
								"description": "The Unique ID sent with the Request.",
								"type": "string"
							}
						},
						"schema": {
							"type": "object",
							"properties": {
								"error_code": {
									"type": "string",
									"maxLength": 6,
									"description": "<p>Detailed Error Code.</p><p>Please see <a href='#/essentials#errorcodes'>Standard Error Codes</a> for additional details.</p><p>e.g., <code>105030</code></p>"
									},
								"error_type": {
									"type": "string",
									"description": "<p>Brief error description.</p><p>e.g., <code>service_unavailable</code></p>"
									},
								"error_description": {
									"type": "string",
									"description": "<p>Human-friendly detailed error description.</p><p>e.g., <code>API is currently not available, please try again later</code></p>"
									}
							}
						}
					},
					"504": {
						"description": "API connection timeout",
						"headers": {
							"x-amex-request-id": {
								"description": "The Unique ID sent with the Request.",
								"type": "string"
							}
						},
						"schema": {
							"type": "object",
							"properties": {
								"error_code": {
									"type": "string",
									"maxLength": 6,
									"description": "<p>Detailed Error Code.</p><p>Please see <a href='#/essentials#errorcodes'>Standard Error Codes</a> for additional details.</p><p>e.g., <code>105040</code></p>"
									},
								"error_type": {
									"type": "string",
									"description": "<p>Brief error description.</p><p>e.g., <code>connection_timeout</code></p>"
									},
								"error_description": {
									"type": "string",
									"description": "<p>Human-friendly detailed error description.</p><p>e.g., <code>API connection timeout occurred</code></p>"
									}
							}
						}
					}
				},
				"x-tryit": [
					{
						"name": "Geocode - California",
						"requestHeaders": "GET https://api.qasb.americanexpress.com/servicing/v1/banks/atms?radius_unit=MI&radius=5&latitude=37.61&longitude=-122.37&limit=20&offset=1 HTTP/1.1<br />x-amex-api-key : A1W4LlXwgzH54HJFhihiPIKm4xdJARjk<br />x-amex-request-id: AA3434342323<br />Accept: application/json",
						"requestBody": "",
						"responseHeaders": "HTTP/1.1 200 OK<br />Content-Type: application/json<br />x-total-count: 655<br />x-amex-request-id: AA3434342323",
						"responseBody": {"ATMs":[{"identity":{"name":"San Fran. Marriott","terminal_id":"1007004973"},"geolocation":{"latitude":"37.602807","longitude":"-122.37152","distance":"0.5039"},"address":{"street":"1800 Bayshore Hwy","city":"Burlingame","state":"CA","postal_code":"940101203","country_code":"US","country_name":"UNITED STATES"},"attributes":{"deposit_accepting":"N","no_fee":"N","wheelchair_access":"N","restricted_access":"N","braille_enabled":"N","pin":"N","chip":"N"}},{"identity":{"name":"Marriott San Francisco Airport","terminal_id":"1007975593"},"geolocation":{"latitude":"37.602807","longitude":"-122.37152","distance":"0.5039"},"address":{"street":"1800 Old Bayshore Highway","city":"Burlingame","state":"CA","postal_code":"94010","country_code":"US","country_name":"UNITED STATES"},"attributes":{"deposit_accepting":"N","no_fee":"Y","wheelchair_access":"N","restricted_access":"N","braille_enabled":"N","pin":"N","chip":"N"}},{"identity":{"name":"Chevron","terminal_id":"1007328969"},"geolocation":{"latitude":"37.6045509","longitude":"-122.3772749","distance":"0.548"},"address":{"street":"320 E Millbrae Ave","city":"Millbrae","state":"CA","postal_code":"94030","country_code":"US","country_name":"UNITED STATES"},"attributes":{"deposit_accepting":"N","no_fee":"N","wheelchair_access":"N","restricted_access":"N","braille_enabled":"N","pin":"N","chip":"N"}},{"identity":{"name":"Millbrae AvenueChevron","terminal_id":"1007003341"},"geolocation":{"latitude":"37.6045509","longitude":"-122.3772749","distance":"0.548"},"address":{"street":"320 E Millbrae Ave","city":"Millbrae","state":"CA","postal_code":"940303110","country_code":"US","country_name":"UNITED STATES"},"attributes":{"deposit_accepting":"N","no_fee":"N","wheelchair_access":"N","restricted_access":"N","braille_enabled":"N","pin":"N","chip":"N"}},{"identity":{"name":"Clarion Millbrae","terminal_id":"1007256510"},"geolocation":{"latitude":"37.603097","longitude":"-122.3776542","distance":"0.6349"},"address":{"street":"401 E Millbrae Ave","city":"Millbrae","state":"CA","postal_code":"940303111","country_code":"US","country_name":"UNITED STATES"},"attributes":{"deposit_accepting":"N","no_fee":"N","wheelchair_access":"N","restricted_access":"N","braille_enabled":"N","pin":"N","chip":"N"}},{"identity":{"name":"Clarion Millbrae","terminal_id":"1007450861"},"geolocation":{"latitude":"37.603097","longitude":"-122.3776542","distance":"0.6349"},"address":{"street":"401 E. Millbrae Ave.","city":"Millbrae","state":"CA","postal_code":"94030","country_code":"US","country_name":"UNITED STATES"},"attributes":{"deposit_accepting":"N","no_fee":"N","wheelchair_access":"N","restricted_access":"N","braille_enabled":"N","pin":"N","chip":"N"}},{"identity":{"name":"Aloft-San Francisco Airport","terminal_id":"1007975505"},"geolocation":{"latitude":"37.603097","longitude":"-122.3776542","distance":"0.6349"},"address":{"street":"401 East Millbrae Avenue","city":"Millbrae","state":"CA","postal_code":"94030","country_code":"US","country_name":"UNITED STATES"},"attributes":{"deposit_accepting":"N","no_fee":"Y","wheelchair_access":"N","restricted_access":"N","braille_enabled":"N","pin":"N","chip":"N"}},{"identity":{"name":"ALOFT-SAN FRANCISCO AIRPORT","terminal_id":"1007975836"},"geolocation":{"latitude":"37.603097","longitude":"-122.3776542","distance":"0.6349"},"address":{"street":"401East Millbrae Avenue","city":"Millbrae","state":"CA","postal_code":"94030","country_code":"US","country_name":"UNITED STATES"},"attributes":{"bank_name":"N","deposit_accepting":"N","no_fee":"N","wheelchair_access":"N","restricted_access":"Y","braille_enabled":"N","contactless":"N","pin":"N","chip":"N","mobile_top_up":"N"}},{"identity":{"name":"Joe's CafÃ©By The Bay","terminal_id":"1007119942"},"geolocation":{"latitude":"37.600658","longitude":"-122.369806","distance":"0.6456"},"address":{"street":"1669 Bayshore Hwy","city":"Burlingame","state":"CA","postal_code":"94010","country_code":"US","country_name":"UNITED STATES"},"attributes":{"deposit_accepting":"N","no_fee":"Y","wheelchair_access":"N","restricted_access":"N","braille_enabled":"N","pin":"N","chip":"N"}},{"identity":{"name":"Bay Landing HotelBurlingame","terminal_id":"1007347731"},"geolocation":{"latitude":"37.598612","longitude":"-122.366096","distance":"0.8154"},"address":{"street":"1550 Bayshore Hwy","city":"Burlingame","state":"CA","postal_code":"94010","country_code":"US","country_name":"UNITED STATES"},"attributes":{"deposit_accepting":"N","no_fee":"Y","wheelchair_access":"N","restricted_access":"N","braille_enabled":"N","pin":"N","chip":"N"}},{"identity":{"name":"Bay Landing Hotel","terminal_id":"1007378539"},"geolocation":{"latitude":"37.598612","longitude":"-122.366096","distance":"0.8154"},"address":{"street":"1550 Bayshore Hwy.","city":"Burlingame","state":"CA","postal_code":"94010","country_code":"US","country_name":"UNITEDSTATES"},"attributes":{"deposit_accepting":"N","no_fee":"Y","wheelchair_access":"N","restricted_access":"N","braille_enabled":"N","pin":"N","chip":"N"}},{"identity":{"name":"Bay Landing Hotel Burlingame","terminal_id":"1007450844"},"geolocation":{"latitude":"37.598612","longitude":"-122.366096","distance":"0.8154"},"address":{"street":"1550Bayshore Hwy","city":"Burlingame","state":"CA","postal_code":"94010","country_code":"US","country_name":"UNITED STATES"},"attributes":{"deposit_accepting":"N","no_fee":"N","wheelchair_access":"N","restricted_access":"N","braille_enabled":"N","pin":"N","chip":"N"}},{"identity":{"name":"Bay Landing Hotel Burlingame","terminal_id":"1006991116"},"geolocation":{"latitude":"37.598612","longitude":"-122.366096","distance":"0.8154"},"address":{"street":"1550 Bayshore Hwy","city":"Burlingame","state":"CA","postal_code":"940101601","country_code":"US","country_name":"UNITED STATES"},"attributes":{"deposit_accepting":"N","no_fee":"N","wheelchair_access":"N","restricted_access":"N","braille_enabled":"N","pin":"N","chip":"N"}},{"identity":{"name":"In &amp; Out Burger # 190 - Millbrae","terminal_id":"1006970384"},"geolocation":{"latitude":"37.6007867","longitude":"-122.3824541","distance":"0.9328"},"address":{"street":"11 Rollins Rd","city":"Millbrae","state":"CA","postal_code":"940303112","country_code":"US","country_name":"UNITED STATES"},"attributes":{"deposit_accepting":"N","no_fee":"N","wheelchair_access":"N","restricted_access":"N","braille_enabled":"N","pin":"N","chip":"N"}},{"identity":{"name":"In &amp; Out BurgerCorporation","terminal_id":"1007458995"},"geolocation":{"latitude":"37.6007867","longitude":"-122.3824541","distance":"0.9328"},"address":{"street":"11 Rollins Rd","city":"Millbrae","state":"CA","postal_code":"94030","country_code":"US","country_name":"UNITED STATES"},"attributes":{"deposit_accepting":"N","no_fee":"N","wheelchair_access":"N","restricted_access":"N","braille_enabled":"N","pin":"N","chip":"N"}},{"identity":{"name":"Wings Financial Credit Union","terminal_id":"1007767407"},"geolocation":{"latitude":"37.6216507","longitude":"-122.3790817","distance":"0.9461"},"address":{"street":"Terminal Access Road, Bldg 612","city":"San Francisco","state":"CA","postal_code":"94128","country_code":"US","country_name":"UNITED STATES"},"attributes":{"deposit_accepting":"N","no_fee":"N","wheelchair_access":"N","restricted_access":"N","braille_enabled":"N","pin":"N","chip":"N"}},{"identity":{"name":"First RepublicBank","terminal_id":"1007321392"},"geolocation":{"latitude":"37.597108","longitude":"-122.376594","distance":"0.9612"},"address":{"street":"1730 Rollins Road","city":"Burlingame","state":"CA","postal_code":"94010","country_code":"US","country_name":"UNITED STATES"},"attributes":{"deposit_accepting":"N","no_fee":"N","wheelchair_access":"N","restricted_access":"N","braille_enabled":"N","pin":"N","chip":"N"}},{"identity":{"name":"132 Bayshore Shell","terminal_id":"1007100614"},"geolocation":{"latitude":"37.5963629","longitude":"-122.364987","distance":"0.9814"},"address":{"street":"1390 Bayshore Hwy","city":"Burlingame","state":"CA","postal_code":"94010","country_code":"US","country_name":"UNITED STATES"},"attributes":{"deposit_accepting":"N","no_fee":"Y","wheelchair_access":"N","restricted_access":"N","braille_enabled":"N","pin":"N","chip":"N"}},{"identity":{"name":"Burlingame Shell","terminal_id":"1007003743"},"geolocation":{"latitude":"37.5963629","longitude":"-122.364987","distance":"0.9814"},"address":{"street":"1390Bayshore Hwy","city":"Burlingame","state":"CA","postal_code":"940101803","country_code":"US","country_name":"UNITED STATES"},"attributes":{"deposit_accepting":"N","no_fee":"N","wheelchair_access":"N","restricted_access":"N","braille_enabled":"N","pin":"N","chip":"N"}},{"identity":{"name":"Future Pro","terminal_id":"1007759412"},"geolocation":{"latitude":"37.59640503","longitude":"-122.37603","distance":"0.9957"},"address":{"street":"1704 Rollins Rd.","city":"San Jose","state":"CA","postal_code":"95129","country_code":"US","country_name":"UNITED STATES"},"attributes":{"deposit_accepting":"N","no_fee":"Y","wheelchair_access":"N","restricted_access":"N","braille_enabled":"N","pin":"N","chip":"N"}}],"_links":[{"rel":"next","href":"/servicing/v1/banks/atms?radius_unit=MI&radius=5&latitude=37.61&longitude=-122.37&limit=20&offset=21","method":"GET"}]},
						"responseCode": "200",
						"responseMessage": "OK"
					},
					{
						"name": "Address - Bengaluru",
						"requestHeaders": "GET https://api.qasb.americanexpress.com/servicing/v1/banks/atms?radius_unit=MI&radius=5&address=Bengaluru&offset=1&limit=20 HTTP/1.1<br />x-amex-api-key : A1W4LlXwgzH54HJFhihiPIKm4xdJARjk<br />x-amex-request-id: AA3434342323<br />Accept: application/json",
						"requestBody": "",
						"responseHeaders": "HTTP/1.1 200 OK<br />Content-Type: application/json<br />Transfer-Encoding: chunked<br />x-total-count: 9<br />x-amex-request-id: AA3434342323",
						"responseBody": {"ATMs":[{"identity":{"name":"IDBI Bank","terminal_id":"1007957262"},"geolocation":{"latitude":"12.9634838","longitude":"77.5962219","distance":"0.5717"},"address":{"street":"Mission Road Branch(2Nd Cd)","city":"Bangalore Urban","state":"Karnataka","country_code":"IN","country_name":"INDIA"},"attributes":{"deposit_accepting":"N","no_fee":"N","wheelchair_access":"N","restricted_access":"N","braille_enabled":"N","pin":"N","chip":"N"}},{"identity":{"name":"IDBI Bank","terminal_id":"1007957261"},"geolocation":{"latitude":"12.9940901","longitude":"77.6183777","distance":"2.233"},"address":{"street":"Cox Town, Bangalore","city":"Bangalore Urban","state":"Karnataka","postal_code":"560005","country_code":"IN","country_name":"INDIA"},"attributes":{"deposit_accepting":"N","no_fee":"N","wheelchair_access":"N","restricted_access":"N","braille_enabled":"N","pin":"N","chip":"N"}},{"identity":{"name":"HDFC Bank","terminal_id":"1007974498"},"geolocation":{"latitude":"12.9588006","longitude":"77.6524939","distance":"3.9998"},"address":{"street":"Golden Towers  Airport Road Bangalore","city":"Bangalore","state":"Karnataka","postal_code":"560 017","country_code":"IN","country_name":"INDIA"},"attributes":{"deposit_accepting":"N","no_fee":"N","wheelchair_access":"N","restricted_access":"N","braille_enabled":"N","pin":"N","chip":"N"}},{"identity":{"name":"HDFC Bank","terminal_id":"1007974501"},"geolocation":{"latitude":"12.9588006","longitude":"77.6524939","distance":"3.9998"},"address":{"street":"Golden Towers  Airport Road Bangalore","city":"Bangalore","state":"Karnataka","postal_code":"560 017","country_code":"IN","country_name":"INDIA"},"attributes":{"deposit_accepting":"N","no_fee":"N","wheelchair_access":"N","restricted_access":"N","braille_enabled":"N","pin":"N","chip":"N"}},{"identity":{"name":"HDFC Bank","terminal_id":"1007974502"},"geolocation":{"latitude":"12.9588006","longitude":"77.6524939","distance":"3.9998"},"address":{"street":"Golden Towers  Airport Road Bangalore","city":"Bangalore","state":"Karnataka","postal_code":"560 017","country_code":"IN","country_name":"INDIA"},"attributes":{"deposit_accepting":"N","no_fee":"N","wheelchair_access":"N","restricted_access":"N","braille_enabled":"N","pin":"N","chip":"N"}},{"identity":{"name":"HDFC Bank","terminal_id":"1007974503"},"geolocation":{"latitude":"12.9588006","longitude":"77.6524939","distance":"3.9998"},"address":{"street":"Golden Towers Airport Road Bangalore","city":"Bangalore","state":"Karnataka","postal_code":"560 017","country_code":"IN","country_name":"INDIA"},"attributes":{"deposit_accepting":"N","no_fee":"N","wheelchair_access":"N","restricted_access":"N","braille_enabled":"N","pin":"N","chip":"N"}},{"identity":{"name":"HDFC Bank","terminal_id":"1007974506"},"geolocation":{"latitude":"12.9600332","longitude":"77.6560949","distance":"4.2196"},"address":{"street":"Shop No 14, Basement, Anjaneya Complex, Airport Road, Kodihalli","city":"Bangalore","state":"Karnataka","postal_code":"560017","country_code":"IN","country_name":"INDIA"},"attributes":{"deposit_accepting":"N","no_fee":"N","wheelchair_access":"N","restricted_access":"N","braille_enabled":"N","pin":"N","chip":"N"}},{"identity":{"name":"HDFC Bank","terminal_id":"1007974507"},"geolocation":{"latitude":"12.9600332","longitude":"77.6560949","distance":"4.2196"},"address":{"street":"Shop No 14, Basement, Anjaneya Complex, Airport Road, Kodihalli","city":"Bangalore","state":"Karnataka","postal_code":"560017","country_code":"IN","country_name":"INDIA"},"attributes":{"deposit_accepting":"N","no_fee":"N","wheelchair_access":"N","restricted_access":"N","braille_enabled":"N","pin":"N","chip":"N"}},{"identity":{"name":"IDBI Bank","terminal_id":"1007957350"},"geolocation":{"latitude":"12.9003239","longitude":"77.6040421","distance":"4.966"},"address":{"street":"Bilekhalli, Bangalore","city":"Bangalore Urban","state":"Karnataka","postal_code":"560076","country_code":"IN","country_name":"INDIA"},"attributes":{"deposit_accepting":"N","no_fee":"N","wheelchair_access":"N","restricted_access":"N","braille_enabled":"N","pin":"N","chip":"N"}}],"_links":[]},
						"responseCode": "200",
						"responseMessage": "OK"
					},
					{
						"name": "Filter - No ATMs Found",
						"requestHeaders": "GET https://api.qasb.americanexpress.com/servicing/v1/banks/atms?radius=5&latitude=33.67&longitude=-112.09&withdrawl_limit=No&radius_unit=MI&offset=1&limit=20 HTTP/1.1<br />x-amex-api-key : A1W4LlXwgzH54HJFhihiPIKm4xdJARjk<br />x-amex-request-id: AA3434342323<br />Accept: application/json",
						"requestBody": "",
						"responseHeaders": "HTTP/1.1 404 Not Found<br />Content-Type: application/json<br />x-amex-request-id: AA3434342323",
						"responseBody": {"error_code":"104040","error_type":"Resource Not Found","error_description":"No data found for search criteria","more_info":{"response_code":"1006","response_msg":"No data found for search criteria"}},
						"responseCode": "404",
						"responseMessage": "Not Found"
					}
				]
			}
		}
	},
	"definitions": {},
	"x-testInfo": [
		{
			"categoryId": "headonly",
			"categoryName": "Call HEAD",
			"description": "Examples of using HEAD to check the result count",
			"elements": [
				{
					"name": "California",
					"method": "HEAD",
					"headers": "x-amex-api-key : A1W4LlXwgzH54HJFhihiPIKm4xdJARjk<br />x-amex-request-id: AA3434342323",
					"URI": "https://api.qasb.americanexpress.com/servicing/v1/banks/atms?radius_unit=MI&radius=5&latitude=33.66&longitude=-112.10&limit=50&offset=507 HTTP/1.1",
					"payload": ""
				}
			]
		},
		{
			"categoryId": "geocode",
			"categoryName": "Geocode Searches",
			"description": "Search options using Geocodes",
			"elements": [
				{
					"name": "California",
					"method": "GET",
					"headers": "x-amex-api-key : A1W4LlXwgzH54HJFhihiPIKm4xdJARjk<br />x-amex-request-id: AA3434342323",
					"URI": "https://api.qasb.americanexpress.com/servicing/v1/banks/atms?radius_unit=MI&radius=5&latitude=37.61&longitude=-122.37&limit=20&offset=1 HTTP/1.1",
					"payload": ""
				},
				{
					"name": "Dallas",
					"method": "GET",
					"headers": "x-amex-api-key : A1W4LlXwgzH54HJFhihiPIKm4xdJARjk<br />x-amex-request-id: AA3434342323",
					"URI": "https://api.qasb.americanexpress.com/servicing/v1/banks/atms?radius_unit=MI&radius=5&latitude=32.67&longitude=-96.79&limit=20&offset=1 HTTP/1.1",
					"payload": ""
				},
				{
					"name": "Phoenix: Page 1",
					"method": "GET",
					"headers": "x-amex-api-key : A1W4LlXwgzH54HJFhihiPIKm4xdJARjk<br />x-amex-request-id: AA3434342323",
					"URI": "https://api.qasb.americanexpress.com/servicing/v1/banks/atms?radius_unit=MI&radius=5&latitude=33.66&longitude=-112.10&limit=50&offset=1 HTTP/1.1",
					"payload": ""
				},
				{
					"name": "Phoenix: Page 3",
					"method": "GET",
					"headers": "x-amex-api-key : A1W4LlXwgzH54HJFhihiPIKm4xdJARjk<br />x-amex-request-id: AA3434342323",
					"URI": "https://api.qasb.americanexpress.com/servicing/v1/banks/atms?radius_unit=MI&radius=5&latitude=33.66&longitude=-112.10&limit=50&offset=101 HTTP/1.1",
					"payload": ""
				},
				{
					"name": "Phoenix: Last Page",
					"method": "GET",
					"headers": "x-amex-api-key : A1W4LlXwgzH54HJFhihiPIKm4xdJARjk<br />x-amex-request-id: AA3434342323",
					"URI": "https://api.qasb.americanexpress.com/servicing/v1/banks/atms?radius_unit=MI&radius=5&latitude=33.66&longitude=-112.10&limit=50&offset=507 HTTP/1.1",
					"payload": ""
				}
			]
		},
		{
			"categoryId": "byaddress",
			"categoryName": "Address based Searches",
			"description": "Search options using an Address",
			"elements": [
				{
					"name": "Phoenix",
					"method": "GET",
					"headers": "x-amex-api-key : A1W4LlXwgzH54HJFhihiPIKm4xdJARjk<br />x-amex-request-id: AA3434342323",
					"URI": "https://api.qasb.americanexpress.com/servicing/v1/banks/atms?radius_unit=MI&radius=5&address=20401%20N%2019th%20Ave%20Phoenix%20AZ&countryCode=US&state=AZ&postalCode=85027&limit=20 HTTP/1.1",
					"payload": ""
				},
				{
					"name": "Bengaluru",
					"method": "GET",
					"headers": "x-amex-api-key : A1W4LlXwgzH54HJFhihiPIKm4xdJARjk<br />x-amex-request-id: AA3434342323",
					"URI": "https://api.qasb.americanexpress.com/servicing/v1/banks/atms?radius_unit=MI&radius=5&address=Bengaluru&offset=1&limit=20 HTTP/1.1",
					"payload": ""
				}
			]
		},
		{
			"categoryId": "byfilters",
			"categoryName": "Filter based",
			"description": "Searches using different properties to filter the results",
			"elements": [
				{
					"name": "Accepts Chips = N",
					"method": "GET",
					"headers": "x-amex-api-key : A1W4LlXwgzH54HJFhihiPIKm4xdJARjk<br />x-amex-request-id: AA3434342323",
					"URI": "https://api.qasb.americanexpress.com/servicing/v1/banks/atms?radius_unit=MI&radius=1&latitude=33.66&longitude=-112.10&chip=N&offset=1&limit=20 HTTP/1.1",
					"payload": ""
				},
				{
					"name": "Wheelchair Access = Y",
					"method": "GET",
					"headers": "x-amex-api-key : A1W4LlXwgzH54HJFhihiPIKm4xdJARjk<br />x-amex-request-id: AA3434342323",
					"URI": "https://api.qasb.americanexpress.com/servicing/v1/banks/atms?radius_unit=MI&radius=5&latitude=33.66&longitude=-112.10&wheelchair_access=Y&limit=20 HTTP/1.1",
					"payload": ""
				},
				{
					"name": "Wheelchair Access = N",
					"method": "GET",
					"headers": "x-amex-api-key : A1W4LlXwgzH54HJFhihiPIKm4xdJARjk<br />x-amex-request-id: AA3434342323",
					"URI": "https://api.qasb.americanexpress.com/servicing/v1/banks/atms?radius_unit=MI&radius=5&latitude=33.66&longitude=-112.10&wheelchair_access=N&offset=1&limit=20 HTTP/1.1",
					"payload": ""
				},
				{
					"name": "Braille = Y",
					"method": "GET",
					"headers": "x-amex-api-key : A1W4LlXwgzH54HJFhihiPIKm4xdJARjk<br />x-amex-request-id: AA3434342323",
					"URI": "https://api.qasb.americanexpress.com/servicing/v1/banks/atms?radius_unit=MI&radius=5&latitude=33.66&longitude=-112.10&braille_enabled=Y&limit=20 HTTP/1.1",
					"payload": ""
				},
				{
					"name": "Braille = N",
					"method": "GET",
					"headers": "x-amex-api-key : A1W4LlXwgzH54HJFhihiPIKm4xdJARjk<br />x-amex-request-id: AA3434342323",
					"URI": "https://api.qasb.americanexpress.com/servicing/v1/banks/atms?radius_unit=MI&radius=5&latitude=33.66&longitude=-112.10&braille_enabled=N&offset=1&limit=20 HTTP/1.1",
					"payload": ""
				},
				{
					"name": "Accepts Deposits = Y",
					"method": "GET",
					"headers": "x-amex-api-key : A1W4LlXwgzH54HJFhihiPIKm4xdJARjk<br />x-amex-request-id: AA3434342323",
					"URI": "https://api.qasb.americanexpress.com/servicing/v1/banks/atms?radius_unit=MI&radius=5&latitude=33.66&longitude=-112.10&deposit_accepting=Y&limit=20 HTTP/1.1",
					"payload": ""
				},
				{
					"name": "Accepts Deposits = N",
					"method": "GET",
					"headers": "x-amex-api-key : A1W4LlXwgzH54HJFhihiPIKm4xdJARjk<br />x-amex-request-id: AA3434342323",
					"URI": "https://api.qasb.americanexpress.com/servicing/v1/banks/atms?radius_unit=MI&radius=5&latitude=33.66&longitude=-112.10&deposit_accepting=N&offset=1&limit=20 HTTP/1.1",
					"payload": ""
				},
				{
					"name": "No Fees = Y",
					"method": "GET",
					"headers": "x-amex-api-key : A1W4LlXwgzH54HJFhihiPIKm4xdJARjk<br />x-amex-request-id: AA3434342323",
					"URI": "T https://api.qasb.americanexpress.com/servicing/v1/banks/atms?radius_unit=MI&radius=5&latitude=33.66&longitude=-112.10&no_fee=Y&offset=1&limit=20 HTTP/1.1",
					"payload": ""
				},
				{
					"name": "No Fees = N",
					"method": "GET",
					"headers": "x-amex-api-key : A1W4LlXwgzH54HJFhihiPIKm4xdJARjk<br />x-amex-request-id: AA3434342323",
					"URI": "https://api.qasb.americanexpress.com/servicing/v1/banks/atms?radius_unit=MI&radius=5&latitude=33.66&longitude=-112.10&no_fee=N&offset=1&limit=20 HTTP/1.1",
					"payload": ""
				},
				{
					"name": "Pin Mgmt = Y (404)",
					"method": "GET",
					"headers": "x-amex-api-key : A1W4LlXwgzH54HJFhihiPIKm4xdJARjk<br />x-amex-request-id: AA3434342323",
					"URI": "https://api.qasb.americanexpress.com/servicing/v1/banks/atms?radiusUnit=MI&radius=5&latitude=33.66&longitude=-112.10&pin=Y&offset=1&limit=20 HTTP/1.1",
					"payload": ""
				},
				{
					"name": "Pin Mgmt = N",
					"method": "GET",
					"headers": "x-amex-api-key : A1W4LlXwgzH54HJFhihiPIKm4xdJARjk<br />x-amex-request-id: AA3434342323",
					"URI": "https://api.qasb.americanexpress.com/servicing/v1/banks/atms?radiusUnit=MI&radius=5&latitude=33.66&longitude=-112.10&pin=N&offset=1&limit=20 HTTP/1.1",
					"payload": ""
				},
				{
					"name": "Restricted Access = Y",
					"method": "GET",
					"headers": "x-amex-api-key : A1W4LlXwgzH54HJFhihiPIKm4xdJARjk<br />x-amex-request-id: AA3434342323",
					"URI": "https://api.qasb.americanexpress.com/servicing/v1/banks/atms?radius_unit=MI&radius=1&latitude=33.66&longitude=-112.10&restricted_access=Y&limit=20 HTTP/1.1",
					"payload": ""
				},
				{
					"name": "Restricted Access = N",
					"method": "GET",
					"headers": "x-amex-api-key : A1W4LlXwgzH54HJFhihiPIKm4xdJARjk<br />x-amex-request-id: AA3434342323",
					"URI": "https://api.qasb.americanexpress.com/servicing/v1/banks/atms?radius=1&latitude=33.66&longitude=-112.10&restricted_access=N&radius_unit=MI&offset=1&limit=20 HTTP/1.1",
					"payload": ""
				},
				{
					"name": "Balance Inquiry = Y",
					"method": "GET",
					"headers": "x-amex-api-key : A1W4LlXwgzH54HJFhihiPIKm4xdJARjk<br />x-amex-request-id: AA3434342323",
					"URI": "https://api.qasb.americanexpress.com/servicing/v1/banks/atms?radius_unit=MI&radius=1&latitude=33.66&longitude=-112.10&balance_inquiry=Y&limit=20 HTTP/1.1",
					"payload": ""
				},
				{
					"name": "Balance Inquiry = Y",
					"method": "GET",
					"headers": "x-amex-api-key : A1W4LlXwgzH54HJFhihiPIKm4xdJARjk<br />x-amex-request-id: AA3434342323",
					"URI": "https://api.qasb.americanexpress.com/servicing/v1/banks/atms?radius_unit=MI&radius=1&latitude=33.67&longitude=-112.09&balance_inquiry=N&offset=1&limit=20 HTTP/1.1",
					"payload": ""
				},
				{
					"name": "Contactless = Y",
					"method": "GET",
					"headers": "x-amex-api-key : A1W4LlXwgzH54HJFhihiPIKm4xdJARjk<br />x-amex-request-id: AA3434342323",
					"URI": "https://api.qasb.americanexpress.com/servicing/v1/banks/atms?radius_unit=MI&radius=5&latitude=33.66&longitude=-112.10&contact_less=Y&limit=20 HTTP/1.1",
					"payload": ""
				},
				{
					"name": "Contactless = N",
					"method": "GET",
					"headers": "x-amex-api-key : A1W4LlXwgzH54HJFhihiPIKm4xdJARjk<br />x-amex-request-id: AA3434342323",
					"URI": "https://api.qasb.americanexpress.com/servicing/v1/banks/atms?radius_unit=MI&radius=5&latitude=33.67&longitude=-112.09&contact_less=N&offset=1&limit=20 HTTP/1.1",
					"payload": ""
				},
				{
					"name": "Multi-currency = Y",
					"method": "GET",
					"headers": "x-amex-api-key : A1W4LlXwgzH54HJFhihiPIKm4xdJARjk<br />x-amex-request-id: AA3434342323",
					"URI": "https://api.qasb.americanexpress.com/servicing/v1/banks/atms?radius_unit=MI&radius=5&latitude=33.66&longitude=-112.10&multi_currency=Yes&limit=20 HTTP/1.1",
					"payload": ""
				},
				{
					"name": "Multi-currency = N",
					"method": "GET",
					"headers": "x-amex-api-key : A1W4LlXwgzH54HJFhihiPIKm4xdJARjk<br />x-amex-request-id: AA3434342323",
					"URI": "https://api.qasb.americanexpress.com/servicing/v1/banks/atms?radius_unit=MI&radius=5&latitude=33.67&longitude=-112.09&multi_currency=No&offset=1&limit=20 HTTP/1.1",
					"payload": ""
				},
				{
					"name": "Withdrawal Limit = Y",
					"method": "GET",
					"headers": "x-amex-api-key : A1W4LlXwgzH54HJFhihiPIKm4xdJARjk<br />x-amex-request-id: AA3434342323",
					"URI": "https://api.qasb.americanexpress.com/servicing/v1/banks/atms?radius_unit=MI&radius=5&latitude=33.66&longitude=-112.10&withdrawl_limit=Yes&limit=20 HTTP/1.1",
					"payload": ""
				},
				{
					"name": "Withdrawal Limit = N",
					"method": "GET",
					"headers": "x-amex-api-key : A1W4LlXwgzH54HJFhihiPIKm4xdJARjk<br />x-amex-request-id: AA3434342323",
					"URI": "https://api.qasb.americanexpress.com/servicing/v1/banks/atms?radius=5&latitude=33.67&longitude=-112.09&withdrawl_limit=No&radius_unit=MI&offset=1&limit=20 HTTP/1.1",
					"payload": ""
				},
				{
					"name": "Mobile Topup = Y",
					"method": "GET",
					"headers": "x-amex-api-key : A1W4LlXwgzH54HJFhihiPIKm4xdJARjk<br />x-amex-request-id: AA3434342323",
					"URI": "https://api.qasb.americanexpress.com/servicing/v1/banks/atms?radius_unit=MI&radius=5&latitude=33.66&longitude=-112.10&mobile_topup=Yes&offset=1&limit=20 HTTP/1.1",
					"payload": ""
				},
				{
					"name": "Mobile Topup = N",
					"method": "GET",
					"headers": "x-amex-api-key : A1W4LlXwgzH54HJFhihiPIKm4xdJARjk<br />x-amex-request-id: AA3434342323",
					"URI": "https://api.qasb.americanexpress.com/servicing/v1/banks/atms?radius=5&latitude=33.66&longitude=-112.10&mobile_topup=N&radius_unit=MI&offset=1&limit=486 HTTP/1.1",
					"payload": ""
				}
			]
		},
		{
			"categoryId": "errorresults",
			"categoryName": "Example Errors",
			"description": "The following queries result in errors of different types",
			"elements": [
				{
					"name": "No ATMs Found",
					"method": "GET",
					"headers": "x-amex-api-key : A1W4LlXwgzH54HJFhihiPIKm4xdJARjk<br />x-amex-request-id: AA3434342323",
					"URI": "https://api.qasb.americanexpress.com/servicing/v1/banks/atms?radius_unit=MI&radius=5&latitude=33.66&longitude=-112.10&limit=50&offset=507 HTTP/1.1",
					"payload": ""
				}
			]
		}
	]
}
