{
	"swagger": "2.0",
	"info": {
		"description": "<p>Pay with Points functions as a two-part API requiring first (step 1) a call to either:<ul><li>Verify an available amount</li></ul>OR<ul><li>Retrieve the Card Member's balance</li></ul>Followed by a call to create the redemption (step 2) which completes the transaction if the Card Member chose to Pay with Points.</p><p>Two common scenarios are supported within Pay with Points:<ul><li><strong>Single-step:</strong> Supports scenarios such as:<ul><li>POS solutions where you want to help the Card Member move quickly through the Pay with Points decision</li><li>Solutions where the verification surface (screen the Card Member engages with) is too small to support an advanced interface</li></ul></li><li><strong>Interactive:</strong> Enabling you to provide more information to the Card Member to make decisions, such as selecting a partial Payment-with-Rewards solution in an online purchase</li></ul></p><p><strong>Single-step:</strong></p><p>The <em>single-step</em> approach begins with using the <samp>/redemptions/verifications</samp> API to:<ul><li>Determine whether the Card is associated with a Rewards program</li><li>Confirm the Card has sufficient Rewards to cover the needed payment</li></ul>The response information includes details such as how many Rewards are needed, which you can use to present the confirmation decision to the Card Member.</p><p>If the Card Member chooses to Pay with Points, you confirm this decision by calling <samp>POST /redemptions</samp> with the transaction details.</p><p><strong>Interactive:</strong></p><p>The <em>Interactive</em> approach begins by calling the <samp>POST /rewards/search</samp> API to:<ul><li>Determine whether the Card is associated with a Rewards program</li><li>Provide the currently available balance of Rewards</li><li>Provide Currency to Rewards conversion details</li></ul>The response information can then be used to interactively present multiple choices to the Card Member. An example of such a choice may be asking whether the Card Member would like to use <strong>some</strong> or <strong>all</strong> of the available Rewards to pay for <strong>part</strong> or <strong>all</strong> of the purchase within an Online Shopping Cart's payment section.</p><p>If the Card Member chooses to Pay with Points, you confirm this decision by calling <samp>POST /redemptions</samp> with the transaction details including the number of Rewards used.</p><p><em>Note: If needed, subsequent calls to <samp>POST /rewards/search</samp> are allowed. However, the original <samp>timestamp</samp> of the first call must be used in subsequent calls.</p><p><strong>Important Note</strong></p><p>Pay with Points is currently only available in US markets using US Dollars.</p><p><strong>Additionally</strong></p><p><ul><li>If the first call to <samp>POST /rewards/search</samp> or <samp>POST /redemptions/verifications</samp> responds with a failure, <strong>no</strong> mention of Pay with Points should be made to the Card Member (<em>the attempt to use Pay with Points should be masked from the Card Member</em>)</li><li>If the call to <samp>POST /redemptions</samp> responds with a failure, the error should be masked from the Card Member and appropriate retries attempted <strong>asynchronously</strong> to complete the transaction</li></ul>The primary goal is to provide a positive experience to the Card Member under all circumstances.</p>",
		"version": "2.0",
		"title": "Pay with Points",
		"x-modified": "Sep 13, 2016"
	},
	"x-basePaths": [
		{ "basePath": "/loyalty/v2/accounts"}
	],
	"x-uris" : [
		{"uri": "/loyalty/v1/accounts/rewards/search"},
		{"uri": "/loyalty/v1/accounts/rewards/redemptions/verifications"},
		{"uri": "/loyalty/v1/accounts/rewards/redemptions"}
	],
	"x-security": {
		"oneWayTLS_AppKey": false,
		"oneWayTLS_HMAC": true,
		"oAuth": false
	},
	"x-samples": [
		{
			"name": "Java client library and samples",
			"href": "https://github.com/americanexpress/amex-api-java-client-core"
		},
		{
			"name": ".NET client library and samples",
			"href": "https://github.com/americanexpress/amex-api-dotnet-client-core"
		}
	],
	"schemes": [
		"https"
	],
	"consumes": [
		"application/json"
	],
	"paths": {
		"/rewards/search": {
			"post": {
				"summary": "Supporting the Interactive approach of the Pay with Rewards API",
				"description": "<p><samp>/rewards/search</samp> requires only the basic Card details needed to look up Rewards and subsequently returns Reward details that can be used interactively with the Card Member.</p><p>If the Card is not Rewards enabled, you will receive a <span class='label label-danger'>400</span> response with appropriate details.</p><p><em>Note: While <samp>/rewards/search</samp> is effectively a read-only API, a <samp>POST</samp> is used to ensure the sensitive data required for the request, such as <samp>card_number</samp>, is secured by not presenting it in the URI's query string. To learn more, please see the <a href='#/essentials#apistandards'>Essentials Guide</a>.</em></p>",
				"produces": [
					"application/json"
				],
				"parameters": [
					{
						"in": "header",
						"name": "x-amex-api-key",
						"description": "<p>Your application's Client Key for accessing this API.</p><p><em><a href='#/essentials#apisecurity'>Learn more about API Key security</a></em></p><p>e.g., <code>cOthV4ao4Xxho1BzrIXcOf8CTJXUONdj</code></p>",
						"required": true,
						"type": "string",
						"maxLength": 36
					},
					{
						"in": "header",
						"name": "Authorization",
						"description": "<p>Authentication and Authorization token using HMAC SHA 256 algorithm.</p><p><em><a href='#/essentials#apisecurity'>Learn more about HMAC headers</a></em></p><p>e.g., <a href='#/essentials#apisecurity'>Please see the HMAC example here.</a></p>",
						"required": true,
						"type": "string",
						"maxLength": 36
					},
					{
						"in": "header",
						"name": "x-amex-request-id",
						"description": "<p>Unique ID <strong>generated by the merchant</strong> for each <samp>/rewards/search</samp> and <samp>/redemptions</samp> call combination. The <strong>same</strong> <samp>x-amex-request-id</samp> must be used for both calls. The scope of uniqueness is limited to the merchant.</p><p>A <samp>x-amex-request-id</samp> should <strong>never be re-used</strong> across different transactions.</p><p>e.g., <code>AA3434342323</code></p>",
						"required": true,
						"type": "string",
						"maxLength": 32
					},
					{
						"in": "body",
						"name": "request",
						"schema": {
							"type": "object",
							"required": [
								"merchant_client_id",
								"timestamp",
								"card"
							],
							"properties": {
								"merchant_client_id": {
									"type": "string",
									"maxLength": 40,
									"description": "<p>Merchant identification code. This is a unique ID assigned to each merchant when onboarding to the Pay with Points program.</p><p><em>You will be able to access the <samp>merchant_client_id</samp> from your Application Keys when moving to both the QA and Production environments. A standard Sandbox key is available within the Test Data section below.</em></p><p>e.g., <code>PWR_POS</code></p>",
									"x-required": true
								},
								"timestamp": {
									"type": "string",
									"maxLength": 29,
									"description": "<p>Originating timestamp of the API request. Format follows ISO 8601: <samp>YYYY-MM-DDTHH:MM:SS.SSSzZZ:ZZ</samp>.</p><p>e.g., <code>2014-03-31T11:08:00.715-04:00</code></p>",
									"x-required": true
								},
								"card": {
									"description": "<p><em>Note:</em> At a minimum, the Card number is required. Depending on the terms of your agreement in participating with Pay with Points, the <samp>cid, expiration_month, and expiration_year</samp> properties may also be required.</p>",
									"x-required": true,
									"type": "object",
									"properties": {
										"number": {
											"type": "string",
											"maxLength": 15,
											"description": "<p>American Express Account Number.</p><p>This field must always be consistent across the <samp>/rewards/search</samp> and <samp>/redemptions</samp> calls.</p><p>e.g., <code>375987654321001</code></p>",
											"x-required": true
										},
										"cid": {
											"type": "string",
											"maxLength": 4,
											"description": "<p>Card Identification Number.</p><p>Based on your agreement with Pay with Points, this property <strong>may be required</strong>.</p><p>e.g., <code>9364</code></p>",
											"x-required": false
										},
										"expiration_month": {
											"type": "string",
											"maxLength": 2,
											"description": "<p>Card expiration month. Both digits are required.</p><p>Based on your agreement with Pay with Points, this property <strong>may be required</strong>.</p><p>e.g., <code>02</code></p>",
											"x-required": false
										},
										"expiration_year": {
											"type": "string",
											"maxLength": 4,
											"description": "<p>Card expiration year. Four digits are required.</p><p>Based on your agreement with Pay with Points, this property <strong>may be required</strong>.</p><p>e.g., <code>2016</code></p>",
											"x-required": false
										}
									}
								}
							}
						}
					}
				],
				"responses": {
					"200": {
						"description": "<p>Success! The Card is valid and has Rewards available for use.</p>",
						"headers": {
							"x-amex-request-id": {
								"description": "The Unique ID sent with the Request.",
								"type": "string"
							}
						},
						"schema": {
							"type": "object",
							"properties": {
								"timestamp": {
									"type": "string",
									"description": "<p>timestamp of the response.</p><p>Format follows ISO 8601: <samp>YYYY-MM-DDTHH:MM:SS.SSSzZZ:ZZ</samp>.</p><p>e.g., <code>2014-03-31T11:08:00.715-04:00</samp></p>"
								},
								"rewards": {
									"type": "object",
									"properties": {
										"conversion_rate": {
											"type": "number",
											"description": "<p>Value used to calculate the conversion from currency to reward units. <samp>amount / conversion_rate = Rewards needed</samp></p><p>e.g., <code>0.01</code></p>"
										},
										"balance": {
											"type": "number",
											"description": "<p>Total Reward units available.</p><p>e.g., <code>1058</code></p>"
										},
										"unit": {
											"type": "string",
											"maxLength": 15,
											"description": "<p>Unit name of the type of Reward available.</p><p>e.g., <code>Points</code></p>"
										}
									}
								}
							}
						}  
					},
					"400": {
						"description": "<p>Bad Request</p><p>This error could also occur when the Card is found, but ineligible for this transaction due to one of the following possible conditions:</p><p><samp>INQ2002 </samp>Card is not eligible for the program </p><p><samp>INQ2003 </samp>Not sufficient points in Rewards Account </p><p><samp>INQ2004 </samp>Card is not eligible for Redemption </p>",
						"headers": {
							"x-amex-request-id": {
								"description": "The Unique ID sent with the Request.",
								"type": "string"
							}
						},
						"schema": {
							"type": "object",
							"properties": {
								"error_code": {
									"type": "string",
									"maxLength": 6,
									"description": "<p>Detailed Error Code.</p><p>Please see <a href='#/essentials#errorcodes'>Standard Error Codes</a> for additional details.</p><p>e.g., <code>104000</code></p>"
									},
								"error_type": {
									"type": "string",
									"description": "<p>Brief error description.</p><p>e.g., <code>invalid_request</code></p>"
									},
								"error_description": {
									"type": "string",
									"description": "<p>Human-friendly detailed error description.</p><p>e.g., <code>Invalid request data or missing mandatory parameters</code></p>"
									},
								"more_info": {
									"type": "object",
									"description": "<p>Additional information related to the error. This could include low-level error codes and information.</p><p>e.g., <code>INQ2002 Card is not eligible for the Program</code></p>",
									"properties": {
										"status": {
											"type": "string",
											"maxLength": 10,
											"description": "<p>Status of the request</p><p>e.g., <code>fail</code></p>",
											"x-required": false
										},
										"merchant_client_id": {
											"type": "string",
											"maxLength": 40,
											"description": "<p>Merchant identification code. This is a unique ID assigned to each merchant when onboarding to the Pay with Points program.</p><p><em>You will be able to access the <samp>merchant_client_id</samp> from your Application Keys when moving to both the QA and Production environments. A standard Sandbox key is available within the Test Data section below.</em></p><p>e.g., <code>PWR_POS</code></p>",
											"x-required": false
										},
										"timestamp": {
											"type": "string",
											"maxLength": 29,
											"description": "<p>Originating timestamp of the API request. Format follows ISO 8601: <samp>YYYY-MM-DDTHH:MM:SS.SSSzZZ:ZZ</samp>.</p><p>e.g., <code>2014-03-31T11:08:00.715-04:00</code></p>",
											"x-required": false
										},
										"response_code": {
											"type": "string",
											"description": "<p>Detailed error code.</p><p>e.g., <code>Invalid Card Number</code></p>"
										},
										"response_description": {
											"type": "string",
											"description": "<p>Human-friendly detailed error description.</p><p>e.g., <code>Invalid API Key identified on the gateway</code></p>"
										}
									},
									"x-required": false
								}
							}
						}
					},
					"401": {
						"description": "Unauthorized. Indicates a failure within the security credentials.",
						"headers": {
							"x-amex-request-id": {
								"description": "The Unique ID sent with the Request.",
								"type": "string"
							}
						},
						"schema": {
							"type": "object",
							"properties": {
								"error_code": {
									"type": "string",
									"maxLength": 6,
									"description": "<p>Detailed Error Code.</p><p>Please see <a href='#/essentials#errorcodes'>Standard Error Codes</a> for additional details.</p><p>e.g., <code>104010</code></p>"
									},
								"error_type": {
									"type": "string",
									"description": "<p>Brief error description.</p><p>e.g., <code>unauthorized</code></p>"
									},
								"error_description": {
									"type": "string",
									"description": "<p>Human-friendly detailed error description.</p><p>e.g., <code>Invalid API Key identified on the gateway</code></p>"
									}
							}
						}
					},
					"404": {
						"description": "<p>Card not found.</p><p><samp>INQ2008 </samp>Card number not found </p>",
						"headers": {
							"x-amex-request-id": {
								"description": "The Unique ID sent with the Request.",
								"type": "string"
							}
						},
						"schema": {
							"type": "object",
							"properties": {
								"error_code": {
									"type": "string",
									"maxLength": 6,
									"description": "<p>Detailed Error Code.</p><p>Please see <a href='#/essentials#errorcodes'>Standard Error Codes</a> for additional details.</p><p>e.g., <code>104040</code></p>"
									},
								"error_type": {
									"type": "string",
									"description": "<p>Brief error description.</p><p>e.g., <code>not_found</code></p>"
									},
								"error_description": {
									"type": "string",
									"description": "<p>Human-friendly detailed error description.</p><p>e.g., <code>Requested resource not found</code></p>"
									}
							}
						}
					},
					"405": {
						"description": "Invalid HTTP Verb",
						"headers": {
							"x-amex-request-id": {
								"description": "The Unique ID sent with the Request.",
								"type": "string"
							}
						},
						"schema": {
							"type": "object",
							"properties": {
								"error_code": {
									"type": "string",
									"maxLength": 6,
									"description": "<p>Detailed Error Code.</p><p>Please see <a href='#/essentials#errorcodes'>Standard Error Codes</a> for additional details.</p><p>e.g., <code>104050</code></p>"
									},
								"error_type": {
									"type": "string",
									"description": "<p>Brief error description.</p><p>e.g., <code>invalid_http_verb</code></p>"
									},
								"error_description": {
									"type": "string",
									"description": "<p>Human-friendly detailed error description.</p><p>e.g., <code>Invalid HTTP verb for the requested resource</code></p>"
									}
							}
						}
					},
					"415": {
						"description": "Unsupported Media Type",
						"headers": {
							"x-amex-request-id": {
								"description": "The Unique ID sent with the Request.",
								"type": "string"
							}
						},
						"schema": {
							"type": "object",
							"properties": {
								"error_code": {
									"type": "string",
									"maxLength": 6,
									"description": "<p>Detailed Error Code.</p><p>Please see <a href='#/essentials#errorcodes'>Standard Error Codes</a> for additional details.</p><p>e.g., <code>104150</code></p>"
								},
								"error_type": {
									"type": "string",
									"description": "<p>Brief error description.</p><p>e.g., <code>unsupported_media_type</code></p>"
								},
								"error_description": {
									"type": "string",
									"description": "<p>Human-friendly detailed error description.</p><p>e.g., <code>Content-Type is invalid for the requested resource</code></p>"
								}
							}
						}
					},
					"429": {
						"description": "Too Many Requests",
						"headers": {
							"x-amex-request-id": {
								"description": "The Unique ID sent with the Request.",
								"type": "string"
							}
						},
						"schema": {
							"type": "object",
							"properties": {
								"error_code": {
									"type": "string",
									"maxLength": 6,
									"description": "<p>Detailed Error Code.</p><p>Please see <a href='#/essentials#errorcodes'>Standard Error Codes</a> for additional details.</p><p>e.g., <code>104290</code></p>"
									},
								"error_type": {
									"type": "string",
									"description": "<p>Brief error description.</p><p>e.g., <code>rate_limit_violation</code></p>"
									},
								"error_description": {
									"type": "string",
									"description": "<p>Human-friendly detailed error description.</p><p>e.g., <code>Exceeded configured rate limit for the API, please try again later</code></p>"
									}
							}
						}
					},
					"500": {
						"description": "Internal Error. An error has occurred within the American Express systems.",
						"headers": {
							"x-amex-request-id": {
								"description": "The Unique ID sent with the Request.",
								"type": "string"
							}
						},
						"schema": {
							"type": "object",
							"properties": {
								"error_code": {
									"type": "string",
									"maxLength": 6,
									"description": "<p>Detailed Error Code.</p><p>Please see <a href='#/essentials#errorcodes'>Standard Error Codes</a> for additional details.</p><p>e.g., <code>105000</code></p>"
									},
								"error_type": {
									"type": "string",
									"description": "<p>Brief error description.</p><p>e.g., <code>internal_error</code></p>"
									},
								"error_description": {
									"type": "string",
									"description": "<p>Human-friendly detailed error description.</p><p>e.g., <code>Severe internal server error occurred</code></p>"
									},
								"more_info": {
									"type": "object",
									"description": "<p>Additional information related to the error. This could include low-level error codes and information.</p><p>e.g., <code>INQ3001 Amex internal system error</code></p>",
									"properties": {
										"status": {
											"type": "string",
											"maxLength": 10,
											"description": "<p>Status of the request</p><p>e.g., <code>fail</code></p>",
											"x-required": true
										},
										"merchant_client_id": {
											"type": "string",
											"maxLength": 40,
											"description": "<p>Merchant identification code. This is a unique ID assigned to each merchant when onboarding to the Pay with Points program.</p><p><em>You will be able to access the <samp>merchant_client_id</samp> from your Application Keys when moving to both the QA and Production environments. A standard Sandbox key is available within the Test Data section below.</em></p><p>e.g., <code>PWR_POS</code></p>",
											"x-required": true
										},
										"timestamp": {
											"type": "string",
											"maxLength": 29,
											"description": "<p>Originating timestamp of the API request. Format follows ISO 8601: <samp>YYYY-MM-DDTHH:MM:SS.SSSzZZ:ZZ</samp>.</p><p>e.g., <code>2014-03-31T11:08:00.715-04:00</code></p>",
											"x-required": true
										},
										"response_code": {
											"type": "string",
											"description": "<p>Detailed error code.</p><p>e.g., <code>Invalid Card Number</code></p>"
										},
										"response_description": {
											"type": "string",
											"description": "<p>Human-friendly detailed error description.</p><p>e.g., <code>Invalid API Key identified on the gateway</code></p>"
										}
									}
								}
							}
						}
					},
					"503": {
						"description": "Service Unavailable",
						"headers": {
							"x-amex-request-id": {
								"description": "The Unique ID sent with the Request.",
								"type": "string"
							}
						},
						"schema": {
							"type": "object",
							"properties": {
								"error_code": {
									"type": "string",
									"maxLength": 6,
									"description": "<p>Detailed Error Code.</p><p>Please see <a href='#/essentials#errorcodes'>Standard Error Codes</a> for additional details.</p><p>e.g., <code>105030</code></p>"
									},
								"error_type": {
									"type": "string",
									"description": "<p>Brief error description.</p><p>e.g., <code>service_unavailable</code></p>"
									},
								"error_description": {
									"type": "string",
									"description": "<p>Human-friendly detailed error description.</p><p>e.g., <code>API is currently not available, please try again later</code></p>"
									}
							}
						}
					},
					"504": {
						"description": "API connection timeout",
						"headers": {
							"x-amex-request-id": {
								"description": "The Unique ID sent with the Request.",
								"type": "string"
							}
						},
						"schema": {
							"type": "object",
							"properties": {
								"error_code": {
									"type": "string",
									"maxLength": 6,
									"description": "<p>Detailed Error Code.</p><p>Please see <a href='#/essentials#errorcodes'>Standard Error Codes</a> for additional details.</p><p>e.g., <code>105040</code></p>"
									},
								"error_type": {
									"type": "string",
									"description": "<p>Brief error description.</p><p>e.g., <code>connection_timeout</code></p>"
									},
								"error_description": {
									"type": "string",
									"description": "<p>Human-friendly detailed error description.</p><p>e.g., <code>API connection timeout occurred</code></p>"
									}
							}
						}
					}
				},
				"x-tryit": [
					{
						"name": "Basic Search",
						"requestHeaders": "POST https://api.qasb.americanexpress.com/loyalty/v1/accounts/rewards/search HTTP/1.1<br />Accept-Encoding: gzip,deflate<br />Content-Type: application/json<br />x-amex-request-id: E2_NE_02102_10<br />Authorization: MAC id='78e67df6-a36e-4dfb-883f-fc71a8fc7ed4',ts='1473992317672',nonce='1473992317672'', bodyhash='zIudV4AUB9EBfrobHtQ18s0zTxwdgNTp07ZU9XIu6uQ=', mac='dvIaOja5ePN48tR4qzJMqIu3yvIPZs28cOGcfBi2rUw='<br />x-amex-api-key: 78e67df6-a36e-4dfb-883f-fc71a8fc7ed4<br />Content-Length: 117",
						"requestBody": {"merchant_client_id":"PHOENIX","timestamp":"2015-10-16T00:40:00.715-07:00","card":{"number":"375987654321001"}},
						"responseHeaders": "HTTP/1.1 200 OK<br />Accept-Encoding: gzip,deflate<br />Content-Type: application/json<br />x-amex-request-id: amexsandbox_100<br />Authorization: MAC id='78e67df6-a36e-4dfb-883f-fc71a8fc7ed4',ts='1473992317672',nonce='1473992317672', bodyhash='zIudV4AUB9EBfrobHtQ18s0zTxwdgNTp07ZU9XIu6uQ=', mac='dvIaOja5ePN48tR4qzJMqIu3yvIPZs28cOGcfBi2rUw='<br />x-amex-api-key: 78e67df6-a36e-4dfb-883f-fc71a8fc7ed4<br />Content-Length: 120",
						"responseBody": {"timestamp":"2016-04-01T14:24:26.689-07:00","rewards":{"conversion_rate":"0.0070","balance":"7665871","unit":"Points"}},
						"responseCode": "200",
						"responseMessage": "OK"
					}
				]
			}
		},
		"/redemptions/verifications": {
			"post": {
				"summary": "Supporting the Single-step approach of the Pay with Rewards API",
				"description": "<p><samp>/redemptions/verifications</samp> requires both Card details and Basket details in the request. These details are used to verify whether the purchase can be made with-Rewards. If so, the details of the proposed transaction are returned so that the Card Member can choose whether to Pay with Points.</p><p>The API will respond with either a <span class='label label-success'>200</span> indicating the purchase is allowed or a <span class='label label-danger'>400</span> indicating the card is ineligible. If successful, you will receive both the number of and type of Rewards needed to complete the transaction.</p><p><em>Note: While <samp>/redemptions/verifications</samp> is effectively a read-only API, a <samp>POST</samp> is used to ensure the sensitive data required for the request, such as <samp>card_number</samp>, is secured by not presenting it in the URI's query string. To learn more, please see the <a href='#/essentials#apistandards'>Essentials Guide</a>.</em></p>",
				"produces": [
					"application/json"
				],
				"parameters": [
					{
						"in": "header",
						"name": "x-amex-api-key",
						"description": "<p>Your application's Client Key for accessing this API.</p><p><em><a href='#/essentials#apisecurity'>Learn more about API Key security</a></em></p><p>e.g., <code>cOthV4ao4Xxho1BzrIXcOf8CTJXUONdj</code></p>",
						"required": true,
						"type": "string",
						"maxLength": 36
					},
					{
						"in": "header",
						"name": "Authorization",
						"description": "<p>Authentication and Authorization token using HMAC SHA 256 algorithm.</p><p><em><a href='#/essentials#apisecurity'>Learn more about HMAC headers</a></em></p><p>e.g., <a href='#/essentials#apisecurity'>Please see the HMAC example here.</a></p>",
						"required": true,
						"type": "string",
						"maxLength": 36
					},
					{
						"in": "header",
						"name": "x-amex-request-id",
						"description": "<p>Unique ID <strong>generated by the merchant</strong> for each <samp>/redemptions/verifications</samp> and <samp>/redemptions</samp> call combination. The <strong>same</strong> <samp>x-amex-request-id</samp> must be used for both calls. The scope of uniqueness is limited to the merchant.</p><p>A <samp>x-amex-request-id</samp> should <strong>never be re-used</strong> across different transactions.</p><p>e.g., <code>AA3434342323</code></p>",
						"required": true,
						"type": "string",
						"maxLength": 32
					},
					{
						"in": "body",
						"name": "request",
						"description": "<p>/balance request details must be passed in the payload to ensure security of sensitive data.</p>",
						"required": true,
						"schema": {
							"type": "object",
							"required": [
								"merchant_client_id",
								"timestamp",
								"card"
							],
							"properties": {
								"merchant_client_id": {
									"type": "string",
									"maxLength": 40,
									"description": "<p>Merchant identification code. This is a unique ID assigned to each merchant when onboarding to the Pay with Points program.</p><p><em>You will be able to access the <samp>merchant_client_id</samp> from your Application Keys when moving to both the QA and Production environments. A standard Sandbox key is available within the Test Data section below.</em></p><p>e.g., <code>PWR_POS</code></p>",
									"x-required": true
								},
								"timestamp": {
									"type": "string",
									"maxLength": 29,
									"description": "<p>Originating timestamp of the API request. Format follows ISO 8601: <samp>YYYY-MM-DDTHH:MM:SS.SSSzZZ:ZZ</samp>.</p><p>e.g., <code>2014-03-31T11:08:00.715-04:00</code></p>",
									"x-required": true
								},
								"card": {
									"description": "<p><em>Note:</em> At a minimum, the Card number is required. Depending on the terms of your agreement in participating with Pay with Points, the <samp>cid, expiration_month, and expiration_year</samp> properties may also be required.</p>",
									"x-required": true,
									"type": "object",
									"properties": {
										"number": {
											"type": "string",
											"maxLength": 15,
											"description": "<p>American Express Account Number.</p><p>This field must always be consistent across the <samp>/rewards/search</samp> and <samp>/redemptions</samp> calls.</p><p>e.g., <code>375987654321001</code></p>",
											"x-required": true
										},
										"cid": {
											"type": "string",
											"maxLength": 4,
											"description": "<p>Card Identification Number.</p><p>Based on your agreement with Pay with Points, this property <strong>may be required</strong>.</p><p>e.g., <code>9364</code></p>",
											"x-required": false
										},
										"expiration_month": {
											"type": "string",
											"maxLength": 2,
											"description": "<p>Card expiration month. Both digits are required.</p><p>Based on your agreement with Pay with Points, this property <strong>may be required</strong>.</p><p>e.g., <code>02</code></p>",
											"x-required": false
										},
										"expiration_year": {
											"type": "string",
											"maxLength": 3,
											"description": "<p>Card expiration year. Four digits are required.</p><p>Based on your agreement with Pay with Points, this property <strong>may be required</strong>.</p><p>e.g., <code>2016</code></p>",
											"x-required": false
										}
									}
								},
								"basket": {
									"description": "<p>Transaction information describing the purchase currently being performed in the local currency of your location.</p>",
									"x-required": true,
									"type": "object",
									"properties": {
										"amount": {
											"type": "number",
											"description": "<p>Transaction amount <strong>in US Dollars only</strong>. This is the amount that will be used to validate whether sufficient Rewards are available. <em>Exclude currency indicators</em>.</p><p>e.g., <code>10.58</sam></p>",
											"x-required": true
										}
									}
								}
							}
						}
					}
				],
				"responses": {
					"200": {
						"description": "<p>Success! The Card is valid and has sufficient Rewards available for the purchase.</p>",
						"headers": {
							"x-amex-request-id": {
								"description": "The Unique ID sent with the Request.",
								"type": "string"
							}
						},
						"schema": {
							"type": "object",
							"properties": {
								"timestamp": {
									"type": "string",
									"description": "<p>timestamp of the response.</p><p>Format follows ISO 8601: <samp>YYYY-MM-DDTHH:MM:SS.SSSzZZ:ZZ</samp>.</p><p>e.g., <code>2014-03-31T11:08:00.715-04:00</samp></p>"
								},
								"rewards": {
									"type": "object",
									"properties": {
										"conversion_rate": {
											"type": "number",
											"description": "<p>Value used to calculate the conversion from currency to reward units. <samp>amount / conversion_rate = Rewards needed</samp></p><p>e.g., <code>0.01</code></p>"
										},
										"count": {
											"type": "number",
											"description": "<p>Number of Reward units required to fulfill the purchase based on the supplied <samp>basket.amount</samp>.</p><p>e.g., <code>1058</code></p>"
										},
										"balance": {
											"type": "number",
											"description": "<p>Total Reward units available after Pay with Points is completed.</p><p>e.g., <code>1058</code></p>"
										},
										"unit": {
											"type": "string",
											"maxLength": 15,
											"description": "<p>Unit name of the type of Reward available.</p><p>e.g., <code>Points</code></p>"
										}
									}
								}
							}
						}  
					},
					"400": {
						"description": "<p>Invalid information submitted. Please see the <samp>error_description</samp> for details.</p><p>This error could also occur when the Card is found, but ineligible for this transaction due to one of the following possible conditions:</p><p><samp>INQ2002 </samp>Card is not eligible for the program </p><p><samp>INQ2003 </samp>Not sufficient points in Rewards Account </p><p><samp>INQ2004 </samp>Card is not eligible for Redemption </p>",
						"headers": {
							"x-amex-request-id": {
								"description": "The Unique ID sent with the Request.",
								"type": "string"
							}
						},
						"schema": {
							"type": "object",
							"properties": {
								"error_code": {
									"type": "string",
									"maxLength": 6,
									"description": "<p>Detailed Error Code.</p><p>Please see <a href='#/essentials#errorcodes'>Standard Error Codes</a> for additional details.</p><p>e.g., <code>104000</code></p>"
									},
								"error_type": {
									"type": "string",
									"description": "<p>Brief error description.</p><p>e.g., <code>invalid_request</code></p>"
									},
								"error_description": {
									"type": "string",
									"description": "<p>Human-friendly detailed error description.</p><p>e.g., <code>Invalid request data or missing mandatory parameters</code></p>"
									},
								"more_info": {
									"type": "object",
									"description": "<p>Additional information related to the error. This could include low-level error codes and information.</p><p>e.g., <code>INQ2002 Card is not eligible for the Program</code></p>",
									"properties": {
										"status": {
											"type": "string",
											"maxLength": 10,
											"description": "<p>Status of the request</p><p>e.g., <code>fail</code></p>",
											"x-required": false
										},
										"merchant_client_id": {
											"type": "string",
											"maxLength": 40,
											"description": "<p>Merchant identification code. This is a unique ID assigned to each merchant when onboarding to the Pay with Points program.</p><p><em>You will be able to access the <samp>merchant_client_id</samp> from your Application Keys when moving to both the QA and Production environments. A standard Sandbox key is available within the Test Data section below.</em></p><p>e.g., <code>PWR_POS</code></p>",
											"x-required": false
										},
										"timestamp": {
											"type": "string",
											"maxLength": 29,
											"description": "<p>Originating timestamp of the API request. Format follows ISO 8601: <samp>YYYY-MM-DDTHH:MM:SS.SSSzZZ:ZZ</samp>.</p><p>e.g., <code>2014-03-31T11:08:00.715-04:00</code></p>",
											"x-required": false
										},
										"response_code": {
											"type": "string",
											"description": "<p>Detailed error code.</p><p>e.g., <code>Invalid Card Number</code></p>"
										},
										"response_description": {
											"type": "string",
											"description": "<p>Human-friendly detailed error description.</p><p>e.g., <code>Invalid API Key identified on the gateway</code></p>"
										}
									},
									"x-required": false
								}
							}
						}
					},
					"401": {
						"description": "Unauthorized. Indicates a failure within the security credentials.",
						"headers": {
							"x-amex-request-id": {
								"description": "The Unique ID sent with the Request.",
								"type": "string"
							}
						},
						"schema": {
							"type": "object",
							"properties": {
								"error_code": {
									"type": "string",
									"maxLength": 6,
									"description": "<p>Detailed Error Code.</p><p>Please see <a href='#/essentials#errorcodes'>Standard Error Codes</a> for additional details.</p><p>e.g., <code>104010</code></p>"
									},
								"error_type": {
									"type": "string",
									"description": "<p>Brief error description.</p><p>e.g., <code>unauthorized</code></p>"
									},
								"error_description": {
									"type": "string",
									"description": "<p>Human-friendly detailed error description.</p><p>e.g., <code>Invalid API Key identified on the gateway</code></p>"
									}
							}
						}
					},
					"404": {
						"description": "<p>Card not found.</p><p><samp>INQ2008 </samp>Card number not found </p>",
						"headers": {
							"x-amex-request-id": {
								"description": "The Unique ID sent with the Request.",
								"type": "string"
							}
						},
						"schema": {
							"type": "object",
							"properties": {
								"error_code": {
									"type": "string",
									"maxLength": 6,
									"description": "<p>Detailed Error Code.</p><p>Please see <a href='#/essentials#errorcodes'>Standard Error Codes</a> for additional details.</p><p>e.g., <code>104040</code></p>"
									},
								"error_type": {
									"type": "string",
									"description": "<p>Brief error description.</p><p>e.g., <code>not_found</code></p>"
									},
								"error_description": {
									"type": "string",
									"description": "<p>Human-friendly detailed error description.</p><p>e.g., <code>Requested resource not found</code></p>"
									},
								"more_info": {
									"type": "object",
									"description": "<p>Additional information related to the error. This could include low-level error codes and information.</p><p>e.g., <code>INQ2002 Card is not eligible for the Program</code></p>",
									"properties": {
										"status": {
											"type": "string",
											"maxLength": 10,
											"description": "<p>Status of the request</p><p>e.g., <code>fail</code></p>",
											"x-required": false
										},
										"merchant_client_id": {
											"type": "string",
											"maxLength": 40,
											"description": "<p>Merchant identification code. This is a unique ID assigned to each merchant when onboarding to the Pay with Points program.</p><p><em>You will be able to access the <samp>merchant_client_id</samp> from your Application Keys when moving to both the QA and Production environments. A standard Sandbox key is available within the Test Data section below.</em></p><p>e.g., <code>PWR_POS</code></p>",
											"x-required": false
										},
										"timestamp": {
											"type": "string",
											"maxLength": 29,
											"description": "<p>Originating timestamp of the API request. Format follows ISO 8601: <samp>YYYY-MM-DDTHH:MM:SS.SSSzZZ:ZZ</samp>.</p><p>e.g., <code>2014-03-31T11:08:00.715-04:00</code></p>",
											"x-required": false
										},
										"response_code": {
											"type": "string",
											"description": "<p>Detailed error code.</p><p>e.g., <code>Invalid Card Number</code></p>"
										},
										"response_description": {
											"type": "string",
											"description": "<p>Human-friendly detailed error description.</p><p>e.g., <code>Invalid API Key identified on the gateway</code></p>"
										}
									},
									"x-required": false
								}
							}
						}
					},
					"405": {
						"description": "Invalid HTTP Verb",
						"headers": {
							"x-amex-request-id": {
								"description": "The Unique ID sent with the Request.",
								"type": "string"
							}
						},
						"schema": {
							"type": "object",
							"properties": {
								"error_code": {
									"type": "string",
									"maxLength": 6,
									"description": "<p>Detailed Error Code.</p><p>Please see <a href='#/essentials#errorcodes'>Standard Error Codes</a> for additional details.</p><p>e.g., <code>104050</code></p>"
									},
								"error_type": {
									"type": "string",
									"description": "<p>Brief error description.</p><p>e.g., <code>invalid_http_verb</code></p>"
									},
								"error_description": {
									"type": "string",
									"description": "<p>Human-friendly detailed error description.</p><p>e.g., <code>Invalid HTTP verb for the requested resource</code></p>"
									}
							}
						}
					},
					"415": {
						"description": "Unsupported Media Type",
						"headers": {
							"x-amex-request-id": {
								"description": "The Unique ID sent with the Request.",
								"type": "string"
							}
						},
						"schema": {
							"type": "object",
							"properties": {
								"error_code": {
									"type": "string",
									"maxLength": 6,
									"description": "<p>Detailed Error Code.</p><p>Please see <a href='#/essentials#errorcodes'>Standard Error Codes</a> for additional details.</p><p>e.g., <code>104150</code></p>"
								},
								"error_type": {
									"type": "string",
									"description": "<p>Brief error description.</p><p>e.g., <code>unsupported_media_type</code></p>"
								},
								"error_description": {
									"type": "string",
									"description": "<p>Human-friendly detailed error description.</p><p>e.g., <code>Content-Type is invalid for the requested resource</code></p>"
								}
							}
						}
					},
					"429": {
						"description": "Too Many Requests",
						"headers": {
							"x-amex-request-id": {
								"description": "The Unique ID sent with the Request.",
								"type": "string"
							}
						},
						"schema": {
							"type": "object",
							"properties": {
								"error_code": {
									"type": "string",
									"maxLength": 6,
									"description": "<p>Detailed Error Code.</p><p>Please see <a href='#/essentials#errorcodes'>Standard Error Codes</a> for additional details.</p><p>e.g., <code>104290</code></p>"
									},
								"error_type": {
									"type": "string",
									"description": "<p>Brief error description.</p><p>e.g., <code>rate_limit_violation</code></p>"
									},
								"error_description": {
									"type": "string",
									"description": "<p>Human-friendly detailed error description.</p><p>e.g., <code>Exceeded configured rate limit for the API, please try again later</code></p>"
									}
							}
						}
					},
					"500": {
						"description": "Internal Error. An error has occurred within the American Express systems.",
						"headers": {
							"x-amex-request-id": {
								"description": "The Unique ID sent with the Request.",
								"type": "string"
							}
						},
						"schema": {
							"type": "object",
							"properties": {
								"error_code": {
									"type": "string",
									"maxLength": 6,
									"description": "<p>Detailed Error Code.</p><p>Please see <a href='#/essentials#errorcodes'>Standard Error Codes</a> for additional details.</p><p>e.g., <code>105000</code></p>"
									},
								"error_type": {
									"type": "string",
									"description": "<p>Brief error description.</p><p>e.g., <code>internal_error</code></p>"
									},
								"error_description": {
									"type": "string",
									"description": "<p>Human-friendly detailed error description.</p><p>e.g., <code>Severe internal server error occurred</code></p>"
									},
								"more_info": {
									"type": "object",
									"description": "<p>Additional information related to the error. This could include low-level error codes and information.</p><p>e.g., <code>INQ3001 Amex internal system error</code></p>",
									"properties": {
										"status": {
											"type": "string",
											"maxLength": 10,
											"description": "<p>Status of the request</p><p>e.g., <code>fail</code></p>",
											"x-required": false
										},
										"merchant_client_id": {
											"type": "string",
											"maxLength": 40,
											"description": "<p>Merchant identification code. This is a unique ID assigned to each merchant when onboarding to the Pay with Points program.</p><p><em>You will be able to access the <samp>merchant_client_id</samp> from your Application Keys when moving to both the QA and Production environments. A standard Sandbox key is available within the Test Data section below.</em></p><p>e.g., <code>PWR_POS</code></p>",
											"x-required": false
										},
										"timestamp": {
											"type": "string",
											"maxLength": 29,
											"description": "<p>Originating timestamp of the API request. Format follows ISO 8601: <samp>YYYY-MM-DDTHH:MM:SS.SSSzZZ:ZZ</samp>.</p><p>e.g., <code>2014-03-31T11:08:00.715-04:00</code></p>",
											"x-required": false
										},
										"response_code": {
											"type": "string",
											"description": "<p>Detailed error code.</p><p>e.g., <code>Invalid Card Number</code></p>"
										},
										"response_description": {
											"type": "string",
											"description": "<p>Human-friendly detailed error description.</p><p>e.g., <code>Invalid API Key identified on the gateway</code></p>"
										}
									},
									"x-required": false
								}
							}
						}
					},
					"503": {
						"description": "Service Unavailable",
						"headers": {
							"x-amex-request-id": {
								"description": "The Unique ID sent with the Request.",
								"type": "string"
							}
						},
						"schema": {
							"type": "object",
							"properties": {
								"error_code": {
									"type": "string",
									"maxLength": 6,
									"description": "<p>Detailed Error Code.</p><p>Please see <a href='#/essentials#errorcodes'>Standard Error Codes</a> for additional details.</p><p>e.g., <code>105030</code></p>"
									},
								"error_type": {
									"type": "string",
									"description": "<p>Brief error description.</p><p>e.g., <code>service_unavailable</code></p>"
									},
								"error_description": {
									"type": "string",
									"description": "<p>Human-friendly detailed error description.</p><p>e.g., <code>API is currently not available, please try again later</code></p>"
									}
							}
						}
					},
					"504": {
						"description": "API connection timeout",
						"headers": {
							"x-amex-request-id": {
								"description": "The Unique ID sent with the Request.",
								"type": "string"
							}
						},
						"schema": {
							"type": "object",
							"properties": {
								"error_code": {
									"type": "string",
									"maxLength": 6,
									"description": "<p>Detailed Error Code.</p><p>Please see <a href='#/essentials#errorcodes'>Standard Error Codes</a> for additional details.</p><p>e.g., <code>105040</code></p>"
									},
								"error_type": {
									"type": "string",
									"description": "<p>Brief error description.</p><p>e.g., <code>connection_timeout</code></p>"
									},
								"error_description": {
									"type": "string",
									"description": "<p>Human-friendly detailed error description.</p><p>e.g., <code>API connection timeout occurred</code></p>"
									}
							}
						}
					}
				},
				"x-tryit": [
					{
						"name": "Basic Verification",
						"requestHeaders": "POST https://api.qasb.americanexpress.com/loyalty/v1/accounts/rewards/redemptions/verifications HTTP/1.1<br />Accept-Encoding: gzip,deflate<br />Content-Type: application/json<br />x-amex-request-id: APIGEE_June_13<br />Authorization: MAC id='78e67df6-a36e-4dfb-883f-fc71a8fc7ed4',ts='1475187220574',nonce='1475187220574', bodyhash='bwCH0Gc/KK172cgN70eSfAaIWOPSE6feZZ6ZYviNMYA=', mac='mjGnS6NOMNciPXcwmAf9Qf3Gluy1fLgJHQiY6ScFvys='<br />x-amex-api-key: 78e67df6-a36e-4dfb-883f-fc71a8fc7ed4<br />Content-Length: 136",
						"requestBody": {"merchant_client_id":"BEDROCK","timestamp":"2016-01-08T02:40:00.715-07:00","card":{"number":"375987654321001"},"basket":{"amount":"10"}},
						"responseHeaders": "HTTP/1.1 200 OK<br />Accept-Encoding: gzip,deflate<br />Content-Type: application/json<br />x-amex-request-id: amexsandbox_100<br />Authorization: MAC id='78e67df6-a36e-4dfb-883f-fc71a8fc7ed4',ts='1473992317809',nonce='1473992317809', bodyhash='IdQZczw72IjRg7N+oCy2HJ7TrQyqeBjem69tqfjeyHE=', mac='UNTtwVAfA6HXZB/FF4LWjBXw8oHBsz6iL+va0nzgXaM='<br />x-amex-api-key: 78e67df6-a36e-4dfb-883f-fc71a8fc7ed4<br />Content-Length: 107",
						"responseBody": {"timestamp":"2016-04-01T14:24:26.689-07:00","rewards":{"conversion_rate":"0.0070","count":"143","balance":"7665871","unit":"Points"}},
						"responseCode": "200",
						"responseMessage": "OK"
					}
				]
			}
		},
		"/redemptions": {
			"post": {
				"summary": "Step 2 of <strong>both</strong> approaches:",
				"description": "<p><samp>POST /redemptions</samp> will complete the Pay with Points transaction. To complete the transaction, you will supply:<ul><li><strong>Basket Information:</strong> Providing details for the total purchase amount and card transaction</li><li><strong>Rewards Selection:</strong> Specifying the number and details of the Rewards selected by the Card Member as payment</li></ul></p><p><strong>Critical Note:</strong> To ensure the best experience for Card Members, the expected behavior of the system for all scenarios in which a <span class='label label-danger'>500</span>, time_out (or other non-specified error) is received when submitting the <samp>POST /redemptions</samp> update, is for the Card Member to receive a message indicating a successful completion of Pay with Points. The error condition must then be <strong>resolved asynchronously</strong> to any remaining purchase process.</p><p>Example: The current basket's checkout process should complete as though everything was successful, while a retry to Pay with Points is made in the background.</p><p>If Pay with Points is unable to be completed, a notification will be sent by American Express to the Card Member.</p>",
				"produces": [
					"application/json"
				],
				"parameters": [
					{
						"in": "header",
						"name": "x-amex-api-key",
						"description": "<p>Your application's Client Key for accessing this API.</p><p><em><a href='#/essentials#apisecurity'>Learn more about API Key security</a></em></p><p>e.g., <code>cOthV4ao4Xxho1BzrIXcOf8CTJXUONdj</code></p>",
						"required": true,
						"type": "string",
						"maxLength": 36
					},
					{
						"in": "header",
						"name": "Authorization",
						"description": "<p>Authentication and Authorization token using HMAC SHA 256 algorithm.</p><p><em><a href='#/essentials#apisecurity'>Learn more about HMAC headers</a></em></p><p>e.g., <a href='#/essentials#apisecurity'>Please see the HMAC example here.</a></p>",
						"required": true,
						"type": "string",
						"maxLength": 36
					},
					{
						"in": "header",
						"name": "x-amex-request-id",
						"description": "<p>Unique ID <strong>originally generated by the merchant</strong> during either the <samp>/rewards/search</samp> or <samp>/redemptions/verifications</samp> call. The <strong>same</strong> <samp>x-amex-request-id</samp> originally used must be used for this call as well. The scope of uniqueness is limited to the merchant.</p><p>A <samp>x-amex-request-id</samp> should <strong>never be re-used</strong> across different transactions.</p><p>e.g., <code>AA3434342323</code></p>",
						"required": true,
						"type": "string",
						"maxLength": 32
					},
					{
						"in": "body",
						"name": "request",
						"description": "Pay with reward points request",
						"required": true,
						"schema": {
							"type": "object",
							"properties": {
								"merchant_client_id": {
									"type": "string",
									"maxLength": 40,
									"description": "<p>Merchant identification code. This is a unique ID assigned to each merchant when onboarding to the Pay with Points program.</p><p><em>You will be able to access the <samp>merchant_client_id</samp> from your Application Keys when moving to both the QA and Production environments. A standard Sandbox key is available within the Test Data section below.</em></p><p>e.g., <code>PWR_POS</code></p>",
									"x-required": true
								},
								"timestamp": {
									"type": "string",
									"maxLength": 29,
									"description": "<p>Originating timestamp of the API request (<em>potentially different from <samp>basket.purchase_date</samp></em>). Format follows ISO 8601: <samp>YYYY-MM-DDTHH:MM:SS.SSSzZZ:ZZ</samp>.</p><p>e.g., <code>2014-03-31T11:08:00.715-04:00</code></p>",
									"x-required": true
								},
								"card": {
									"description": "<p><em>Note:</em> At a minimum, the Card number is required. Depending on the terms of your agreement in participating with Pay with Points, the <samp>cid, expiration_month, and expiration_year</samp> properties may also be required.</p>",
									"x-required": true,
									"type": "object",
									"properties": {
										"number": {
											"type": "string",
											"maxLength": 15,
											"description": "<p>American Express Account Number.</p><p>This field must always be consistent across the <samp>/rewards/search</samp> and <samp>/redemptions</samp> calls.</p><p>e.g., <code>375987654321001</code></p>",
											"x-required": true
										}
									}
								},
								"basket": {
									"description": "<p>Transaction information describing the purchase currently being performed in the local currency of your location and based on the <strong>total purchase</strong> associated with the Card.</p>",
									"x-required": true,
									"type": "object",
									"properties": {
										"reservation_id": {
											"type": "string",
											"maxLength": 15,
											"description": "<p>Reservation ID provided by your Card-processing system upon completing the Card's transaction. <em>Note: This ID is associated with the Card's transaction, not the Rewards transaction.</em></p><p>e.g., <code>SQRP17491434646</code></p>",
											"x-required": false
										},
										"purchase_date": {
											"type": "string",
											"maxLength": 29,
											"description": "<p>Originating timestamp of the basket's transaction (potentially different from the <samp>timestamp</samp>). <samp>basket.purchase_date</samp> should match the date on the <strong>settlement record</strong>. Format follows ISO 8601: <samp>YYYY-MM-DDTHH:MM:SS.SSSzZZ:ZZ</samp>.</p><p>e.g., <code>2014-03-31T11:08:00.715-04:00</code></p>",
											"x-required": true
										},
										"amount": {
											"type": "number",
											"description": "<p>Transaction amount <strong>in US Dollars only</strong>. <samp>amount</samp> represents the entire purchase amount. <em>Exclude currency indicators</em>.</p><p>e.g., <code>10.58</sam></p>",
											"x-required": false
										}
									}
								},
								"rewards": {
									"x-required": true,
									"type": "object",
									"properties": {
										"count": {
											"type": "number",
											"description": "<p>Number of Reward units the Card Member has approved to be used toward the purchase.</p><p>e.g., <code>1058</code></p>",
											"x-required": true
										},
										"unit": {
											"type": "string",
											"maxLength": 15,
											"description": "<p>Unit name of the type of Reward selected.</p><p>e.g., <code>Points</code></p>",
											"x-required": true
										},
										"amount": {
											"type": "number",
											"description": "<p>The local currency equivalent of the Reward units approved to be used toward the purchase.</p><p>e.g., <code>10.58</code></p>",
											"x-required": true
										}
									}
								},
								"transaction_approval_code": {
									"type": "string",
									"maxLength": 40,
									"description": "<p>Transaction Approval Code returned by CAS to partner.</p>",
									"x-required": true
								}
							}
						}
					}
				],
				"responses": {
					"200": {
						"description": "<p>Payment successfully completed.</p>",
						"headers": {
							"x-amex-request-id": {
								"description": "The Unique ID sent with the Request.",
								"type": "string"
							}
						},
						"schema": {
							"type": "object",
							"properties": {
								"timestamp": {
									"type": "string",
									"description": "<p>timestamp of the response.</p><p>Format follows ISO 8601: <samp>YYYY-MM-DDTHH:MM:SS.SSSzZZ:ZZ</samp>.</p><p>e.g., <code>2014-03-31T11:08:00.715-04:00</samp></p>"
								},
								"rewards": {
									"type": "object",
									"properties": {
										"reservation": {
											"type": "number",
											"description": "<p>Total Reward units redeemed.</p><p>e.g., <code>1058</code></p>"
										},
										"balance": {
											"type": "number",
											"description": "<p>Total Reward units available after Pay with Points is completed.</p><p>e.g., <code>1058</code></p>"
										},
										"unit": {
											"type": "string",
											"maxLength": 15,
											"description": "<p>Unit name of the type of Reward available.</p><p>e.g., <code>Points</code></p>"
										}
									}
								}
							}
						}  
					},
					"400": {
						"description": "<p>Invalid information submitted. Please see the <samp>error_description</samp> for details.</p><p>This error could also occur when the Card is found, but ineligible for this transaction due to one of the following possible conditions:</p><p><samp>RDM2002 </samp>Card is not eligible for the program </p><p><samp>RDM2003 </samp>Not sufficient points in Rewards Account </p><p><samp>RDM2004 </samp>Card is not eligible for Redemption </p>",
						"headers": {
							"x-amex-request-id": {
								"description": "The Unique ID sent with the Request.",
								"type": "string"
							}
						},
						"schema": {
							"type": "object",
							"properties": {
								"error_code": {
									"type": "string",
									"maxLength": 6,
									"description": "<p>Detailed Error Code.</p><p>Please see <a href='#/essentials#errorcodes'>Standard Error Codes</a> for additional details.</p><p>e.g., <code>104000</code></p>"
									},
								"error_type": {
									"type": "string",
									"description": "<p>Brief error description.</p><p>e.g., <code>invalid_request</code></p>"
									},
								"error_description": {
									"type": "string",
									"description": "<p>Human-friendly detailed error description.</p><p>e.g., <code>Invalid request data or missing mandatory parameters</code></p>"
									},
								"more_info": {
									"type": "object",
									"description": "<p>Additional information related to the error. This could include low-level error codes and information.</p><p>e.g., <code>RDM2002 Card is not eligible for the Program</code></p>",
									"properties": {
										"status": {
											"type": "string",
											"maxLength": 10,
											"description": "<p>Status of the request</p><p>e.g., <code>fail</code></p>",
											"x-required": false
										},
										"merchant_client_id": {
											"type": "string",
											"maxLength": 40,
											"description": "<p>Merchant identification code. This is a unique ID assigned to each merchant when onboarding to the Pay with Points program.</p><p><em>You will be able to access the <samp>merchant_client_id</samp> from your Application Keys when moving to both the QA and Production environments. A standard Sandbox key is available within the Test Data section below.</em></p><p>e.g., <code>PWR_POS</code></p>",
											"x-required": false
										},
										"timestamp": {
											"type": "string",
											"maxLength": 29,
											"description": "<p>Originating timestamp of the API request. Format follows ISO 8601: <samp>YYYY-MM-DDTHH:MM:SS.SSSzZZ:ZZ</samp>.</p><p>e.g., <code>2014-03-31T11:08:00.715-04:00</code></p>",
											"x-required": false
										},
										"response_code": {
											"type": "string",
											"description": "<p>Detailed error code.</p><p>e.g., <code>Invalid Card Number</code></p>"
										},
										"response_description": {
											"type": "string",
											"description": "<p>Human-friendly detailed error description.</p><p>e.g., <code>Invalid API Key identified on the gateway</code></p>"
										}
									},
									"x-required": false
								}
							}
						}
					},
					"401": {
						"description": "Unauthorized. Indicates a failure within the security credentials.",
						"headers": {
							"x-amex-request-id": {
								"description": "The Unique ID sent with the Request.",
								"type": "string"
							}
						},
						"schema": {
							"type": "object",
							"properties": {
								"error_code": {
									"type": "string",
									"maxLength": 6,
									"description": "<p>Detailed Error Code.</p><p>Please see <a href='#/essentials#errorcodes'>Standard Error Codes</a> for additional details.</p><p>e.g., <code>104010</code></p>"
									},
								"error_type": {
									"type": "string",
									"description": "<p>Brief error description.</p><p>e.g., <code>unauthorized</code></p>"
									},
								"error_description": {
									"type": "string",
									"description": "<p>Human-friendly detailed error description.</p><p>e.g., <code>Invalid API Key identified on the gateway</code></p>"
									}
							}
						}
					},
					"404": {
						"description": "<p>Card not found.</p><p><samp>RDM2008 </samp>Invalid PWR Request</p>",
						"headers": {
							"x-amex-request-id": {
								"description": "The Unique ID sent with the Request.",
								"type": "string"
							}
						},
						"schema": {
							"type": "object",
							"properties": {
								"error_code": {
									"type": "string",
									"maxLength": 6,
									"description": "<p>Detailed Error Code.</p><p>Please see <a href='#/essentials#errorcodes'>Standard Error Codes</a> for additional details.</p><p>e.g., <code>104040</code></p>"
									},
								"error_type": {
									"type": "string",
									"description": "<p>Brief error description.</p><p>e.g., <code>not_found</code></p>"
									},
								"error_description": {
									"type": "string",
									"description": "<p>Human-friendly detailed error description.</p><p>e.g., <code>Requested resource not found</code></p>"
									},
								"more_info": {
									"type": "object",
									"description": "<p>Additional information related to the error. This could include low-level error codes and information.</p><p>e.g., <code>RDM2008 Invalid PWR Request</code></p>",
									"properties": {
										"status": {
											"type": "string",
											"maxLength": 10,
											"description": "<p>Status of the request</p><p>e.g., <code>fail</code></p>",
											"x-required": false
										},
										"merchant_client_id": {
											"type": "string",
											"maxLength": 40,
											"description": "<p>Merchant identification code. This is a unique ID assigned to each merchant when onboarding to the Pay with Points program.</p><p><em>You will be able to access the <samp>merchant_client_id</samp> from your Application Keys when moving to both the QA and Production environments. A standard Sandbox key is available within the Test Data section below.</em></p><p>e.g., <code>PWR_POS</code></p>",
											"x-required": false
										},
										"timestamp": {
											"type": "string",
											"maxLength": 29,
											"description": "<p>Originating timestamp of the API request. Format follows ISO 8601: <samp>YYYY-MM-DDTHH:MM:SS.SSSzZZ:ZZ</samp>.</p><p>e.g., <code>2014-03-31T11:08:00.715-04:00</code></p>",
											"x-required": false
										},
										"response_code": {
											"type": "string",
											"description": "<p>Detailed error code.</p><p>e.g., <code>Invalid Card Number</code></p>",
											"x-required": false
										},
										"response_description": {
											"type": "string",
											"description": "<p>Human-friendly detailed error description.</p><p>e.g., <code>Invalid API Key identified on the gateway</code></p>",
											"x-required": false
										}
									},
									"x-required": false
								}
							}
						}
					},
					"405": {
						"description": "Invalid HTTP Verb",
						"headers": {
							"x-amex-request-id": {
								"description": "The Unique ID sent with the Request.",
								"type": "string"
							}
						},
						"schema": {
							"type": "object",
							"properties": {
								"error_code": {
									"type": "string",
									"maxLength": 6,
									"description": "<p>Detailed Error Code.</p><p>Please see <a href='#/essentials#errorcodes'>Standard Error Codes</a> for additional details.</p><p>e.g., <code>104050</code></p>"
									},
								"error_type": {
									"type": "string",
									"description": "<p>Brief error description.</p><p>e.g., <code>invalid_http_verb</code></p>"
									},
								"error_description": {
									"type": "string",
									"description": "<p>Human-friendly detailed error description.</p><p>e.g., <code>Invalid HTTP verb for the requested resource</code></p>"
									}
							}
						}
					},
					"415": {
						"description": "Unsupported Media Type",
						"headers": {
							"x-amex-request-id": {
								"description": "The Unique ID sent with the Request.",
								"type": "string"
							}
						},
						"schema": {
							"type": "object",
							"properties": {
								"error_code": {
									"type": "string",
									"maxLength": 6,
									"description": "<p>Detailed Error Code.</p><p>Please see <a href='#/essentials#errorcodes'>Standard Error Codes</a> for additional details.</p><p>e.g., <code>104150</code></p>"
								},
								"error_type": {
									"type": "string",
									"description": "<p>Brief error description.</p><p>e.g., <code>unsupported_media_type</code></p>"
								},
								"error_description": {
									"type": "string",
									"description": "<p>Human-friendly detailed error description.</p><p>e.g., <code>Content-Type is invalid for the requested resource</code></p>"
								}
							}
						}
					},
					"429": {
						"description": "Too Many Requests",
						"headers": {
							"x-amex-request-id": {
								"description": "The Unique ID sent with the Request.",
								"type": "string"
							}
						},
						"schema": {
							"type": "object",
							"properties": {
								"error_code": {
									"type": "string",
									"maxLength": 6,
									"description": "<p>Detailed Error Code.</p><p>Please see <a href='#/essentials#errorcodes'>Standard Error Codes</a> for additional details.</p><p>e.g., <code>104290</code></p>"
									},
								"error_type": {
									"type": "string",
									"description": "<p>Brief error description.</p><p>e.g., <code>rate_limit_violation</code></p>"
									},
								"error_description": {
									"type": "string",
									"description": "<p>Human-friendly detailed error description.</p><p>e.g., <code>Exceeded configured rate limit for the API, please try again later</code></p>"
									}
							}
						}
					},
					"500": {
						"description": "Internal Error. An error has occurred within the American Express systems.",
						"headers": {
							"x-amex-request-id": {
								"description": "The Unique ID sent with the Request.",
								"type": "string"
							}
						},
						"schema": {
							"type": "object",
							"properties": {
								"error_code": {
									"type": "string",
									"maxLength": 6,
									"description": "<p>Detailed Error Code.</p><p>Please see <a href='#/essentials#errorcodes'>Standard Error Codes</a> for additional details.</p><p>e.g., <code>105000</code></p>"
									},
								"error_type": {
									"type": "string",
									"description": "<p>Brief error description.</p><p>e.g., <code>internal_error</code></p>"
									},
								"error_description": {
									"type": "string",
									"description": "<p>Human-friendly detailed error description.</p><p>e.g., <code>Severe internal server error occurred</code></p>"
									},
								"more_info": {
									"type": "object",
									"description": "<p>Additional information related to the error. This could include low-level error codes and information.</p><p>e.g., <code>RDM3001 Amex internal system error</code></p>",
									"properties": {
										"status": {
											"type": "string",
											"maxLength": 10,
											"description": "<p>Status of the request</p><p>e.g., <code>fail</code></p>",
											"x-required": false
										},
										"merchant_client_id": {
											"type": "string",
											"maxLength": 40,
											"description": "<p>Merchant identification code. This is a unique ID assigned to each merchant when onboarding to the Pay with Points program.</p><p><em>You will be able to access the <samp>merchant_client_id</samp> from your Application Keys when moving to both the QA and Production environments. A standard Sandbox key is available within the Test Data section below.</em></p><p>e.g., <code>PWR_POS</code></p>",
											"x-required": false
										},
										"timestamp": {
											"type": "string",
											"maxLength": 29,
											"description": "<p>Originating timestamp of the API request. Format follows ISO 8601: <samp>YYYY-MM-DDTHH:MM:SS.SSSzZZ:ZZ</samp>.</p><p>e.g., <code>2014-03-31T11:08:00.715-04:00</code></p>",
											"x-required": false
										},
										"response_code": {
											"type": "string",
											"description": "<p>Detailed error code.</p><p>e.g., <code>Invalid Card Number</code></p>",
											"x-required": false
										},
										"response_description": {
											"type": "string",
											"description": "<p>Human-friendly detailed error description.</p><p>e.g., <code>Invalid API Key identified on the gateway</code></p>",
											"x-required": false
										}
									},
									"x-required": false
								}
							}
						}
					},
					"503": {
						"description": "Service Unavailable",
						"headers": {
							"x-amex-request-id": {
								"description": "The Unique ID sent with the Request.",
								"type": "string"
							}
						},
						"schema": {
							"type": "object",
							"properties": {
								"error_code": {
									"type": "string",
									"maxLength": 6,
									"description": "<p>Detailed Error Code.</p><p>Please see <a href='#/essentials#errorcodes'>Standard Error Codes</a> for additional details.</p><p>e.g., <code>105030</code></p>"
									},
								"error_type": {
									"type": "string",
									"description": "<p>Brief error description.</p><p>e.g., <code>service_unavailable</code></p>"
									},
								"error_description": {
									"type": "string",
									"description": "<p>Human-friendly detailed error description.</p><p>e.g., <code>API is currently not available, please try again later</code></p>"
									}
							}
						}
					},
					"504": {
						"description": "API connection timeout",
						"headers": {
							"x-amex-request-id": {
								"description": "The Unique ID sent with the Request.",
								"type": "string"
							}
						},
						"schema": {
							"type": "object",
							"properties": {
								"error_code": {
									"type": "string",
									"maxLength": 6,
									"description": "<p>Detailed Error Code.</p><p>Please see <a href='#/essentials#errorcodes'>Standard Error Codes</a> for additional details.</p><p>e.g., <code>105040</code></p>"
									},
								"error_type": {
									"type": "string",
									"description": "<p>Brief error description.</p><p>e.g., <code>connection_timeout</code></p>"
									},
								"error_description": {
									"type": "string",
									"description": "<p>Human-friendly detailed error description.</p><p>e.g., <code>API connection timeout occurred</code></p>"
									}
							}
						}
					}
				},
				"x-tryit": [
					{
						"name": "Basic Redemption",
						"requestHeaders": "POST https://api.qasb.americanexpress.com/loyalty/v1/accounts/rewards/redemptions HTTP/1.1<br />Accept-Encoding: gzip,deflate<br />Content-Type: application/json<br />x-amex-request-id: APIGEE_3454_13<br />Authorization: MAC id='78e67df6-a36e-4dfb-883f-fc71a8fc7ed4',ts='1473992317928',nonce='1473992317928', bodyhash='Za/2XvmRlS/8i8ZtgKjW+zC3a8K83PvfclldMCKfYuA=', mac='AmU4t7OlLwi8ueRdB6cAQqbeJqxaw+frzAt1eHePtQM='<br />x-amex-api-key: 78e67df6-a36e-4dfb-883f-fc71a8fc7ed4<br />Content-Length: 300",
						"requestBody": { "merchant_client_id": "PHOENIX", "timestamp": "2016-04-04T11:19:56.713-07:00", "card": { "number": "375987654321001" }, "basket": { "purchase_date":"2015-10-16T00:40:00.715-07:00", "amount": "50" }, "rewards": { "count": "10", "unit": "points", "amount": "1"},"transaction_approval_code":"12345A"  },
						"responseHeaders": "HTTP/1.1 200 OK<br />Accept-Encoding: gzip,deflate<br />Content-Type: application/json<br />x-amex-request-id: amexsandbox_134<br />Authorization: MAC id='78e67df6-a36e-4dfb-883f-fc71a8fc7ed4',ts='1473992317928',nonce='1473992317928', bodyhash='Za/2XvmRlS/8i8ZtgKjW+zC3a8K83PvfclldMCKfYuA=', mac='AmU4t7OlLwi8ueRdB6cAQqbeJqxaw+frzAt1eHePtQM='<br />x-amex-api-key: 78e67df6-a36e-4dfb-883f-fc71a8fc7ed4<br />Content-Length: 93",
						"responseBody": {"timestamp":"2016-06-13T08:18:17.947-07:00","rewards":{"reservation": "143","balance":"7661359","unit":"Points"}},
						"responseCode": "200",
						"responseMessage": "OK"
					}
				]
			}
		}
	},
	"x-testInfo": [
		{
			"categoryId": "singleStep",
			"categoryName": "Single-step",
			"description": "",
			"elements": [
				{
					"name": "Verify",
					"method": "POST",
					"headers": "Accept-Encoding: gzip,deflate<br />Content-Type: application/json<br />x-amex-request-id: APIGEE_June_13<br />Authorization: MAC id='78e67df6-a36e-4dfb-883f-fc71a8fc7ed4',ts='1475187220574',nonce='1475187220574', bodyhash='bwCH0Gc/KK172cgN70eSfAaIWOPSE6feZZ6ZYviNMYA=', mac='mjGnS6NOMNciPXcwmAf9Qf3Gluy1fLgJHQiY6ScFvys='<br />x-amex-api-key: 78e67df6-a36e-4dfb-883f-fc71a8fc7ed4<br />Content-Length: 136",
					"URI": "https://api.qasb.americanexpress.com/loyalty/v1/accounts/rewards/redemptions/verifications HTTP/1.1",
					"payload": {"merchant_client_id":"BEDROCK","timestamp":"2016-01-08T02:40:00.715-07:00","card":{"number":"375987654321001"},"basket":{"amount":"10"}}
				},
				{
					"name": "Redeem",
					"method": "POST",
					"headers": "Accept-Encoding: gzip,deflate<br />Content-Type: application/json<br />x-amex-request-id: APIGEE_3454_13<br />Authorization: MAC id='78e67df6-a36e-4dfb-883f-fc71a8fc7ed4',ts='1473992317928',nonce='1473992317928', bodyhash='Za/2XvmRlS/8i8ZtgKjW+zC3a8K83PvfclldMCKfYuA=', mac='AmU4t7OlLwi8ueRdB6cAQqbeJqxaw+frzAt1eHePtQM='<br />x-amex-api-key: 78e67df6-a36e-4dfb-883f-fc71a8fc7ed4<br />Content-Length: 300",
					"URI": "https://api.qasb.americanexpress.com/loyalty/v1/accounts/rewards/redemptions HTTP/1.1",
					"payload": { "merchant_client_id": "PHOENIX", "timestamp": "2016-04-04T11:19:56.713-07:00", "card": { "number": "375987654321001" }, "basket": { "purchase_date":"2015-10-16T00:40:00.715-07:00", "amount": "50" }, "rewards": { "count": "10", "unit": "points", "amount": "1"},"transaction_approval_code":"12345A"  }
				}
			]
		},
		{
			"categoryId": "interactive",
			"categoryName": "Interactive",
			"description": "",
			"elements": [
				{
					"name": "Search",
					"method": "POST",
					"headers": "Accept-Encoding: gzip,deflate<br />Content-Type: application/json<br />x-amex-request-id: E2_NE_02102_10<br />Authorization: MAC id='78e67df6-a36e-4dfb-883f-fc71a8fc7ed4',ts='1473992317672',nonce='1473992317672'', bodyhash='zIudV4AUB9EBfrobHtQ18s0zTxwdgNTp07ZU9XIu6uQ=', mac='dvIaOja5ePN48tR4qzJMqIu3yvIPZs28cOGcfBi2rUw='<br />x-amex-api-key: 78e67df6-a36e-4dfb-883f-fc71a8fc7ed4<br />Content-Length: 117",
					"URI": "https://api.qasb.americanexpress.com/loyalty/v1/accounts/rewards/search HTTP/1.1",
					"payload": {"merchant_client_id":"PHOENIX","timestamp":"2015-10-16T00:40:00.715-07:00","card":{"number":"375987654321001"}}
				},
				{
					"name": "Redeem",
					"method": "POST",
					"headers": "Accept-Encoding: gzip,deflate<br />Content-Type: application/json<br />x-amex-request-id: APIGEE_3454_13<br />Authorization: MAC id='78e67df6-a36e-4dfb-883f-fc71a8fc7ed4',ts='1473992317928',nonce='1473992317928', bodyhash='Za/2XvmRlS/8i8ZtgKjW+zC3a8K83PvfclldMCKfYuA=', mac='AmU4t7OlLwi8ueRdB6cAQqbeJqxaw+frzAt1eHePtQM='<br />x-amex-api-key: 78e67df6-a36e-4dfb-883f-fc71a8fc7ed4<br />Content-Length: 300",
					"URI": "https://api.qasb.americanexpress.com/loyalty/v1/accounts/rewards/redemptions HTTP/1.1",
					"payload": { "merchant_client_id": "PHOENIX", "timestamp": "2016-04-04T11:19:56.713-07:00", "card": { "number": "375987654321001" }, "basket": { "purchase_date":"2015-10-16T00:40:00.715-07:00", "amount": "50" }, "rewards": { "count": "10", "unit": "points", "amount": "1"},"transaction_approval_code":"12345A"  }
				}
			]
		}
	]
}