<?xml version="1.0" encoding="utf-8"?>
<!-- Generator: Adobe Illustrator 18.0.0, SVG Export Plug-In . SVG Version: 6.00 Build 0)  -->
<!DOCTYPE svg PUBLIC "-//W3C//DTD SVG 1.1//EN" "http://www.w3.org/Graphics/SVG/1.1/DTD/svg11.dtd">
<svg version="1.1" id="Layer_1" xmlns="http://www.w3.org/2000/svg" xmlns:xlink="http://www.w3.org/1999/xlink" x="0px" y="0px"
	 width="52px" height="52px" viewBox="0 0 52 52" enable-background="new 0 0 52 52" xml:space="preserve">
<g id="_x36_6._Refreshment">
	<path d="M44,14c0-3.31372-2.68628-6-6-6s-6,2.68628-6,6h-9.41913l-2.65802-7.97412
		c-0.01019-0.03064-0.02679-0.05695-0.0387-0.08649c-0.02051-0.05054-0.04071-0.10071-0.06659-0.14874
		c-0.02344-0.04364-0.05048-0.08374-0.0777-0.12427c-0.02637-0.03937-0.05243-0.07831-0.08246-0.11505
		c-0.03253-0.03979-0.06799-0.07562-0.10419-0.11151c-0.03241-0.03229-0.06445-0.06427-0.09998-0.09363
		c-0.04083-0.03369-0.08417-0.06281-0.12811-0.09192c-0.0365-0.02411-0.0722-0.04852-0.11115-0.06964
		c-0.05219-0.02832-0.10663-0.05066-0.1618-0.07263c-0.02661-0.01056-0.05005-0.0257-0.07758-0.03485l-9.00049-3
		c-0.78418-0.2627-1.63477,0.1626-1.89697,0.94873c-0.26221,0.78564,0.1626,1.63525,0.94873,1.89697l8.28851,2.763L19.41913,14H15.5
		c-0.83203,0-1.62671,0.34552-2.19409,0.9541c-0.56744,0.60852-0.85669,1.42535-0.79858,2.25537l2.10004,30
		C14.71735,48.78119,16.02448,50,17.60004,50h16.79999c1.57556,0,2.88263-1.21881,2.99268-2.79053l1.91492-27.35669
		C41.99176,19.25543,44,16.86407,44,14z M21.49689,17c0.00104,0,0.00208,0.00049,0.00311,0.00049
		c0.00098,0,0.00201-0.00049,0.00299-0.00049H36.5l-0.41998,6H15.91998L15.5,17H21.49689z M17.60004,47L16.13,26h19.74l-1.46997,21
		H17.60004z M39.47241,16.59766c0.02722,0.20117,0.03467,0.40607,0.02026,0.61182c0.05811-0.83002-0.23108-1.64685-0.79852-2.25537
		C38.12671,14.34552,37.33203,14,36.5,14H35c0-1.65424,1.34576-3,3-3s3,1.34576,3,3C41,15.11652,40.3797,16.08112,39.47241,16.59766
		z"/>
</g>
</svg>
