<?xml version="1.0" encoding="utf-8"?>
<!-- Generator: Adobe Illustrator 18.0.0, SVG Export Plug-In . SVG Version: 6.00 Build 0)  -->
<!DOCTYPE svg PUBLIC "-//W3C//DTD SVG 1.1//EN" "http://www.w3.org/Graphics/SVG/1.1/DTD/svg11.dtd">
<svg version="1.1" id="Layer_1" xmlns="http://www.w3.org/2000/svg" xmlns:xlink="http://www.w3.org/1999/xlink" x="0px" y="0px"
	 width="52px" height="52px" viewBox="0 0 52 52" enable-background="new 0 0 52 52" xml:space="preserve">
<g id="Thumbs_Up">
	<path d="M47,30.45354c0-2.06544-1.42236-3.79935-3.33228-4.31856C43.87787,25.61693,44,25.05452,44,24.46359
		c0-2.47089-2.02502-4.49246-4.5-4.49246h-5.17273c1.49518-1.98215,3.28241-4.92667,3.30554-8.37121
		c0.0166-2.56454-0.62598-4.42958-1.90918-5.54295c-0.96484-0.83746-2.29688-1.20306-3.63867-1.00369
		c-0.99902,0.14575-2.66699,0.78969-2.61328,3.46489c0.01074,0.51915-0.27832,1.54087-1.12012,2.85069
		c-0.39551,0.6142-1.69629,1.89233-2.59473,2.4534c-0.66699,0.41678-1.31348,0.97834-1.88477,1.47409
		c-0.47656,0.41434-0.9707,0.84282-1.2832,1.01295c-1.06152,0.57764-1.94336,1.01246-2.71387,1.39317
		c-2.31348,1.14213-3.8418,1.89721-6.14502,4.42861c-0.05371,0.05947-0.12451,0.14526-0.20801,0.24812
		c-0.10547,0.13064-0.41016,0.50696-0.59814,0.62834H8.13281C6.40527,23.00754,5,24.41046,5,26.13511v14.68678
		c0,1.72465,1.40527,3.12757,3.13281,3.12757h5.15332c0.16962,0,0.3299-0.03431,0.48193-0.0861
		c1.06989,0.82412,2.46936,1.6057,4.29053,2.10907C21.17578,46.83426,23.74219,47,25.90723,47
		c0.70898,0,1.37598-0.01852,2.00391-0.0351c0.58008-0.0156,1.14062-0.03022,1.68848-0.03022
		c0.13837,0,0.26978-0.0248,0.39703-0.05984c0.16742,0.01907,0.33105,0.05106,0.50336,0.05106h6c2.47498,0,4.5-2.02163,4.5-4.49246
		c0-0.59099-0.12213-1.15334-0.33228-1.67139C42.57764,40.24284,44,38.50888,44,36.44349c0-0.59099-0.12213-1.15334-0.33228-1.67139
		C45.57764,34.2529,47,32.51892,47,30.45354z M41,24.46359c0,0.81169-0.68689,1.49749-1.5,1.49749h-9
		c-0.81305,0-1.5-0.6858-1.5-1.49749c0-0.81175,0.68695-1.49749,1.5-1.49749h9C40.31311,22.96611,41,23.65185,41,24.46359z
		 M18.85938,43.08664c-4.01074-1.10947-5.26562-3.86559-5.31152-3.9699c-0.31885-0.76337-1.19824-1.12312-1.96191-0.80626
		c-0.76465,0.3188-1.12598,1.19526-0.80762,1.95863c0.01685,0.04028,0.13062,0.29985,0.36005,0.68537H8.13281
		C8.05957,40.95448,8,40.89501,8,40.82189V26.13511c0-0.07312,0.05957-0.13259,0.13281-0.13259h4.89844
		c1.41602,0,2.36719-1.17625,2.82422-1.74171l0.0957-0.1165c1.9209-2.11169,3.03516-2.66155,5.25391-3.75737
		c0.80078-0.39533,1.71582-0.8477,2.82031-1.44825c0.59961-0.3266,1.19043-0.83941,1.81543-1.38245
		c0.51172-0.44408,1.04004-0.90327,1.50781-1.19477c1.20703-0.75411,2.85547-2.33056,3.52734-3.37422
		c1.05469-1.6408,1.62109-3.24943,1.5957-4.52951c-0.00488-0.21643,0.01074-0.35536,0.02539-0.43725
		c0.00781-0.00146,0.01562-0.00244,0.02344-0.0039c0.28516-0.04095,0.82129-0.0585,1.23535,0.30076
		c0.57617,0.49965,0.8877,1.65835,0.87695,3.26308c-0.02246,3.43125-2.51172,6.4155-3.84863,8.01877
		c-0.11334,0.13625-0.21222,0.25628-0.30902,0.37443C28.01172,19.98746,26,22.00117,26,24.46359
		c0,0.50483,0.10327,0.98273,0.25891,1.43668c-0.17371,0.20083-0.30017,0.44652-0.3468,0.72669
		c-0.05176,0.31149-0.04688,0.61713-0.04102,0.93983c0.02344,1.34442,0.05859,3.37617-5.6084,5.07059
		c-0.79297,0.23691-1.24414,1.07145-1.00586,1.86406c0.19434,0.64833,0.79004,1.06755,1.43555,1.06755
		c0.14258,0,0.28809-0.02047,0.43164-0.06337c2.64282-0.78994,4.37311-1.76365,5.52374-2.77123
		c0.15295,0.25579,0.32788,0.49416,0.52698,0.71413C26.45294,34.24607,26,35.29058,26,36.44349s0.45294,2.19743,1.17474,2.99498
		C26.45294,40.23602,26,41.28053,26,42.43344c0,0.55254,0.11462,1.07662,0.29956,1.56664
		C24.20197,44.01989,21.82324,43.90607,18.85938,43.08664z M36.5,43.93093h-6c-0.81305,0-1.5-0.6858-1.5-1.49749
		c0-0.81175,0.68695-1.49749,1.5-1.49749h6c0.81311,0,1.5,0.68574,1.5,1.49749C38,43.24513,37.31311,43.93093,36.5,43.93093z
		 M39.5,37.94098h-3h-6c-0.81305,0-1.5-0.6858-1.5-1.49749c0-0.81175,0.68695-1.49749,1.5-1.49749h9
		c0.81311,0,1.5,0.68574,1.5,1.49749C41,37.25518,40.31311,37.94098,39.5,37.94098z M42.5,31.95103h-3h-9
		c-0.81305,0-1.5-0.6858-1.5-1.49749c0-0.81175,0.68695-1.49749,1.5-1.49749h9h3c0.81311,0,1.5,0.68574,1.5,1.49749
		C44,31.26523,43.31311,31.95103,42.5,31.95103z"/>
</g>
</svg>
