<?xml version="1.0" encoding="utf-8"?>
<!-- Generator: Adobe Illustrator 18.0.0, SVG Export Plug-In . SVG Version: 6.00 Build 0)  -->
<!DOCTYPE svg PUBLIC "-//W3C//DTD SVG 1.1//EN" "http://www.w3.org/Graphics/SVG/1.1/DTD/svg11.dtd">
<svg version="1.1" id="Layer_1" xmlns="http://www.w3.org/2000/svg" xmlns:xlink="http://www.w3.org/1999/xlink" x="0px" y="0px"
	 width="52px" height="52px" viewBox="0 0 52 52" enable-background="new 0 0 52 52" xml:space="preserve">
<g id="_x33_4._Unlock">
	<g>
		<path d="M41,18.99414h-6v-6.98828c0-4.9624-4.03711-9-9-9c-4.64075,0-8.45074,3.53632-8.92798,8.05212
			c-0.04248,0.13885-0.04077,0.3205-0.04077,0.47327c0,0.82843,0.64032,1.46289,1.46875,1.46289s1.5-0.67157,1.5-1.5
			l0.03125-0.15039C20.29224,8.27429,22.86414,6.00586,26,6.00586c3.30859,0,6,2.69141,6,6v6.97656H22v0.01172H11
			c-1.65002,0-3,1.34998-3,3v24c0,1.64996,1.34998,3,3,3h30c1.65002,0,3-1.35004,3-3v-24C44,20.34412,42.65002,18.99414,41,18.99414
			z M41,45.99414H11v-24h30V45.99414z"/>
		<path d="M24.5,33.57806v4.91608c0,0.82812,0.67188,1.5,1.5,1.5s1.5-0.67188,1.5-1.5v-4.91608
			c0.89294-0.51971,1.5-1.47632,1.5-2.58392c0-1.65686-1.34314-3-3-3s-3,1.34314-3,3C23,32.10175,23.60706,33.05835,24.5,33.57806z"
			/>
	</g>
</g>
</svg>
