<?xml version="1.0" encoding="utf-8"?>
<!-- Generator: Adobe Illustrator 18.0.0, SVG Export Plug-In . SVG Version: 6.00 Build 0)  -->
<!DOCTYPE svg PUBLIC "-//W3C//DTD SVG 1.1//EN" "http://www.w3.org/Graphics/SVG/1.1/DTD/svg11.dtd">
<svg version="1.1" id="Layer_1" xmlns="http://www.w3.org/2000/svg" xmlns:xlink="http://www.w3.org/1999/xlink" x="0px" y="0px"
	 width="52px" height="52px" viewBox="0 0 52 52" enable-background="new 0 0 52 52" xml:space="preserve">
<g id="MGM">
	<g>
		<path d="M45.5,9.5h-3v-3C42.5,5.67139,41.82812,5,41,5s-1.5,0.67139-1.5,1.5v3h-3c-0.82812,0-1.5,0.67139-1.5,1.5
			s0.67188,1.5,1.5,1.5h3v3c0,0.82861,0.67188,1.5,1.5,1.5s1.5-0.67139,1.5-1.5v-3h3c0.82812,0,1.5-0.67139,1.5-1.5
			S46.32812,9.5,45.5,9.5z"/>
		<path d="M39.6543,36.11035c-3.51953-2.1377-6.93359-4.04785-7.71094-4.47949c-0.08984-0.15625-0.33008-0.66699-0.58984-1.95703
			c3.95996-4.18262,3.17383-11.53125,3.14355-11.76514C34.14258,10.59521,29.0127,8,24.72754,8
			c-0.09668,0-0.17676,0.00146-0.24023,0.00391C24.42578,8.00146,24.34668,8,24.25293,8c-4.28809,0-9.42188,2.59521-9.76855,9.81104
			c-0.03711,0.32617-0.8208,7.646,3.1084,11.8335c-0.25781,1.33203-0.47168,1.82324-0.56348,1.9873
			c-0.70508,0.3916-4.15332,2.31836-7.70801,4.47852c-3.49561,2.12305-4.14062,4.63379-4.31738,7.03027l-0.00977,0.13281
			l0.01367,0.13184C5.2207,45.45508,6.90674,47,8.93018,47h31.11377c2.03613,0,3.72266-1.55566,3.9248-3.61914l0.01172-0.12598
			l-0.00879-0.12695C43.79883,40.72266,43.1543,38.20703,39.6543,36.11035z M40.04395,44H8.93018
			c-0.44727,0-0.82764-0.33594-0.92188-0.79688c0.16211-1.90625,0.69678-3.20801,2.87061-4.52832
			c3.91162-2.37695,7.69336-4.46875,7.69727-4.47168c1.10645-0.57422,1.58887-2.03418,1.95215-3.95605l0.06055-0.22168
			c0.04492-0.16016,0.07715-0.27637,0.13574-0.56543l0.17578-0.86523l-0.6709-0.57324
			c-3.4873-2.98291-2.77246-9.80322-2.75684-9.96729C17.79004,11.50879,22.74219,11,24.25293,11l0.23145,0.00781L24.72754,11
			c1.50879,0,6.45605,0.50879,6.78125,7.15186c0.21777,1.90137,0.14453,7.38135-2.76465,9.86963l-0.61523,0.52539l0.10156,0.80273
			c0.04395,0.3457,0.08984,0.52539,0.14355,0.7334l0.00977,0.0293c0.4502,2.36816,1.05273,3.5918,1.97949,4.07324
			c0.03809,0.02051,3.81836,2.11035,7.74121,4.49414c2.1875,1.30957,2.70312,2.56055,2.86328,4.5127
			C40.87793,43.65918,40.49609,44,40.04395,44z"/>
	</g>
</g>
</svg>
