<?xml version="1.0" encoding="utf-8"?>
<!-- Generator: Adobe Illustrator 18.0.0, SVG Export Plug-In . SVG Version: 6.00 Build 0)  -->
<!DOCTYPE svg PUBLIC "-//W3C//DTD SVG 1.1//EN" "http://www.w3.org/Graphics/SVG/1.1/DTD/svg11.dtd">
<svg version="1.1" id="Layer_1" xmlns="http://www.w3.org/2000/svg" xmlns:xlink="http://www.w3.org/1999/xlink" x="0px" y="0px"
	 width="52px" height="52px" viewBox="0 0 52 52" enable-background="new 0 0 52 52" xml:space="preserve">
<g id="_x31_0._Help">
	<g>
		<path d="M26,2C12.74518,2,2,12.74518,2,26s10.74518,24,24,24s24-10.74518,24-24S39.25482,2,26,2z M26,47
			C14.42053,47,5,37.57941,5,26C5,14.42053,14.42053,5,26,5s21,9.42053,21,21C47,37.57941,37.57947,47,26,47z"/>
		<circle cx="25.79999" cy="36.25" r="1.75"/>
		<path d="M25.96973,14.021c-3.85645,0-7.06348,2.67334-7.45996,6.21826c-0.09277,0.82324,0.5,1.56543,1.32324,1.65771
			c0.82422,0.08936,1.56641-0.50049,1.65723-1.32373c0.22754-2.02539,2.15234-3.55225,4.47949-3.55225
			c2.49805,0,4.53027,1.76221,4.53027,3.92773c0,2.16016-2.02734,3.92188-4.51953,3.92676
			c-0.04346,0.00006-0.08429,0.00928-0.12677,0.013c-0.00104,0-0.00208-0.00031-0.00311-0.00031c-0.82812,0-1.5,0.67139-1.5,1.5
			v4.09131c0,0.82812,0.67188,1.5,1.5,1.5s1.5-0.67188,1.5-1.5v-2.72687C30.84406,27.15332,33.5,24.33075,33.5,20.94873
			C33.5,17.12891,30.12207,14.021,25.96973,14.021z"/>
	</g>
</g>
</svg>
