<?xml version="1.0" encoding="utf-8"?>
<!-- Generator: Adobe Illustrator 18.0.0, SVG Export Plug-In . SVG Version: 6.00 Build 0)  -->
<!DOCTYPE svg PUBLIC "-//W3C//DTD SVG 1.1//EN" "http://www.w3.org/Graphics/SVG/1.1/DTD/svg11.dtd">
<svg version="1.1" id="Layer_1" xmlns="http://www.w3.org/2000/svg" xmlns:xlink="http://www.w3.org/1999/xlink" x="0px" y="0px"
	 width="52px" height="52px" viewBox="0 0 52 52" enable-background="new 0 0 52 52" xml:space="preserve">
<g id="_x36_1._Change">
	<g>
		<path d="M43.55273,10.93945L35.06836,2.4541c-0.58594-0.58594-1.53516-0.58594-2.12109,0
			c-0.58594,0.58545-0.58594,1.53516,0,2.12109L38.8714,10.5H9.5C8.67139,10.5,8,11.17139,8,12s0.67139,1.5,1.5,1.5h29.3714
			l-5.92413,5.9248c-0.58594,0.58594-0.58594,1.53564,0,2.12109c0.29297,0.29297,0.67676,0.43945,1.06055,0.43945
			s0.76758-0.14648,1.06055-0.43945l8.48438-8.48535c0.29303-0.29279,0.43945-0.67664,0.43939-1.06055
			C43.99219,11.61609,43.84576,11.23224,43.55273,10.93945z"/>
		<path d="M42.49219,38.5h-29.3711l5.9248-5.9248c0.58594-0.58594,0.58594-1.53516,0-2.12109s-1.53516-0.58594-2.12109,0
			l-8.48535,8.48535c-0.58594,0.58594-0.58594,1.53516,0,2.12109l8.48535,8.48535c0.29297,0.29297,0.67676,0.43945,1.06055,0.43945
			s0.76758-0.14648,1.06055-0.43945c0.58594-0.58594,0.58594-1.53516,0-2.12109L13.12109,41.5h29.37109
			c0.82812,0,1.5-0.67188,1.5-1.5S43.32031,38.5,42.49219,38.5z"/>
	</g>
</g>
</svg>
