<?xml version="1.0" encoding="utf-8"?>
<!-- Generator: Adobe Illustrator 18.0.0, SVG Export Plug-In . SVG Version: 6.00 Build 0)  -->
<!DOCTYPE svg PUBLIC "-//W3C//DTD SVG 1.1//EN" "http://www.w3.org/Graphics/SVG/1.1/DTD/svg11.dtd">
<svg version="1.1" id="Layer_1" xmlns="http://www.w3.org/2000/svg" xmlns:xlink="http://www.w3.org/1999/xlink" x="0px" y="0px"
	 width="52px" height="52px" viewBox="0 0 52 52" enable-background="new 0 0 52 52" xml:space="preserve">
<g id="_x37_6._Point_2X">
	<g>
		<path d="M14.98883,22.66064c0.19238-0.61768,0.48047-1.15771,0.86426-1.61963s0.86719-0.82227,1.44922-1.08008
			c0.58203-0.2583,1.25098-0.38721,2.00684-0.38721c0.57617,0,1.125,0.08984,1.64648,0.27002
			c0.52246,0.18018,0.98145,0.43799,1.37695,0.77393c0.39648,0.33643,0.71094,0.75,0.94531,1.24219s0.35059,1.04395,0.35059,1.65576
			c0,0.63623-0.10156,1.18213-0.30566,1.63818s-0.47461,0.86133-0.80957,1.21484c-0.33691,0.354-0.71777,0.67529-1.14355,0.96289
			c-0.42578,0.28809-0.85449,0.57324-1.28613,0.85547c-0.43262,0.28223-0.85254,0.58496-1.26074,0.90918
			s-0.76758,0.70215-1.08008,1.13379h5.95801v2.19629H14.4488c0-0.73242,0.10547-1.36816,0.31543-1.9082
			s0.49512-1.02246,0.85449-1.44922c0.36035-0.42578,0.7832-0.81836,1.26953-1.17871s0.99902-0.72559,1.53906-1.09814
			c0.27539-0.19189,0.56934-0.38721,0.88184-0.58545c0.31152-0.19775,0.59668-0.4165,0.85449-0.65674
			c0.25879-0.23975,0.47461-0.50977,0.64844-0.81006c0.17383-0.2998,0.26074-0.6416,0.26074-1.02588
			c0-0.6123-0.17676-1.08887-0.53027-1.43115c-0.35449-0.3418-0.80762-0.5127-1.35938-0.5127
			c-0.37207,0-0.6875,0.08691-0.94531,0.26074c-0.25781,0.17432-0.46484,0.40234-0.62109,0.68408
			c-0.15527,0.28223-0.2666,0.59375-0.33301,0.93604c-0.06543,0.3418-0.09863,0.68115-0.09863,1.01709h-2.44824
			C14.71247,23.94775,14.79743,23.27881,14.98883,22.66064z"/>
		<path d="M25.6889,19.57373h3.27637l2.51953,4.104l2.61035-4.104h3.0957l-4.12207,6.13818l4.48242,6.71436h-3.36621
			l-2.80762-4.44629l-2.8623,4.44629H25.3471l4.48145-6.73242L25.6889,19.57373z"/>
	</g>
	<g>
		<path d="M25.9999,4.99993c11.57948,0,21.00007,9.42059,21.00007,21.00007S37.57938,47.00006,25.9999,47.00006
			C14.4205,47.00006,4.99997,37.57948,4.99997,26S14.4205,4.99993,25.9999,4.99993 M25.9999,1.99993
			C12.74512,1.99993,1.99997,12.74508,1.99997,26c0,13.2548,10.74515,24.00006,23.99993,24.00006
			c13.25492,0,24.00007-10.74527,24.00007-24.00006C49.99997,12.74508,39.25482,1.99993,25.9999,1.99993L25.9999,1.99993z"/>
	</g>
</g>
</svg>
