<?xml version="1.0" encoding="utf-8"?>
<!-- Generator: Adobe Illustrator 18.0.0, SVG Export Plug-In . SVG Version: 6.00 Build 0)  -->
<!DOCTYPE svg PUBLIC "-//W3C//DTD SVG 1.1//EN" "http://www.w3.org/Graphics/SVG/1.1/DTD/svg11.dtd">
<svg version="1.1" id="Layer_1" xmlns="http://www.w3.org/2000/svg" xmlns:xlink="http://www.w3.org/1999/xlink" x="0px" y="0px"
	 width="52px" height="52px" viewBox="0 0 52 52" enable-background="new 0 0 52 52" xml:space="preserve">
<g id="_x32_1._Search">
	<path d="M46.08203,43.96094L33.96417,31.84308c5.35632-6.42889,5.02539-15.99518-1.00696-22.02753
		C29.76202,6.6203,25.57415,5.0227,21.38635,5.0227s-8.37561,1.5976-11.5708,4.79285c-6.39044,6.39038-6.39044,16.75122,0,23.14166
		c3.19519,3.19519,7.383,4.79279,11.5708,4.79279c3.71851,0,7.43304-1.26666,10.45673-3.78583l12.11786,12.11786
		c0.29297,0.29297,0.67676,0.43945,1.06055,0.43945s0.76758-0.14648,1.06055-0.43945
		C46.66797,45.49609,46.66797,44.54688,46.08203,43.96094z M21.38635,34.75c-3.56952,0-6.92548-1.39008-9.44952-3.91412
		s-3.91412-5.88-3.91412-9.44952c0-3.56958,1.39008-6.92548,3.91412-9.44952s5.88-3.91412,9.44952-3.91412
		c3.56958,0,6.92548,1.39008,9.44952,3.91412S34.75,17.81677,34.75,21.38635c0,3.56952-1.39008,6.92548-3.91412,9.44952
		S24.95593,34.75,21.38635,34.75z"/>
</g>
</svg>
