<?xml version="1.0" encoding="utf-8"?>
<!-- Generator: Adobe Illustrator 18.0.0, SVG Export Plug-In . SVG Version: 6.00 Build 0)  -->
<!DOCTYPE svg PUBLIC "-//W3C//DTD SVG 1.1//EN" "http://www.w3.org/Graphics/SVG/1.1/DTD/svg11.dtd">
<svg version="1.1" id="Layer_1" xmlns="http://www.w3.org/2000/svg" xmlns:xlink="http://www.w3.org/1999/xlink" x="0px" y="0px"
	 width="52px" height="52px" viewBox="0 0 52 52" enable-background="new 0 0 52 52" xml:space="preserve">
<g id="_x35_0._Payment_Due-filled">
	<g>
		<path d="M26,5c-0.82843,0-1.5,0.67157-1.5,1.5S25.17157,8,26,8c9.92523,0,18,8.07477,18,18s-8.07477,18-18,18S8,35.92523,8,26
			c0-5.72516,2.69128-10.82904,6.87036-14.12787l0.00134,2.3324c0.00262,0.82739,0.67273,1.50055,1.50073,1.49878
			c0.8288,0.00018,1.49969-0.67157,1.49939-1.50031l-0.00354-6.00006c-0.00012-0.073-0.00543-0.14429-0.01556-0.21484
			c-0.10461-0.72687-0.72955-1.28516-1.48517-1.284l-6.00018,0.00299C9.53912,6.70691,8.86768,7.37872,8.86804,8.2074
			c0.00281,0.82544,0.67157,1.49976,1.50073,1.49884l2.40552-0.00122C8.03528,13.55438,5,19.41864,5,26c0,11.59802,9.40198,21,21,21
			s21-9.40198,21-21C47,14.4021,37.59802,5,26,5z"/>
		<path d="M26,38c6.62744,0,12-5.37262,12-12c0-6.62744-5.37256-12-12-12s-12,5.37256-12,12C14,32.62738,19.37256,38,26,38z
			 M23.2453,19.67261c0-0.7533,0.67188-1.36365,1.5-1.36365s1.5,0.61035,1.5,1.36365v6.86768l4.65668,4.65668
			c0.53265,0.53265,0.48914,1.43933-0.09644,2.0249s-1.49225,0.62903-2.0249,0.09637l-5.14258-5.14258
			c0,0-0.39276-0.37878-0.39276-0.88C23.2453,27.29566,23.2453,19.67261,23.2453,19.67261z"/>
	</g>
</g>
</svg>
