<?xml version="1.0" encoding="utf-8"?>
<!-- Generator: Adobe Illustrator 18.0.0, SVG Export Plug-In . SVG Version: 6.00 Build 0)  -->
<!DOCTYPE svg PUBLIC "-//W3C//DTD SVG 1.1//EN" "http://www.w3.org/Graphics/SVG/1.1/DTD/svg11.dtd">
<svg version="1.1" id="Layer_1" xmlns="http://www.w3.org/2000/svg" xmlns:xlink="http://www.w3.org/1999/xlink" x="0px" y="0px"
	 width="52px" height="52px" viewBox="0 0 52 52" enable-background="new 0 0 52 52" xml:space="preserve">
<g id="Thumbs_Down-filled">
	<path d="M43.66772,17.2279C43.87787,16.70984,44,16.1475,44,15.55651c0-2.06538-1.42236-3.79935-3.33228-4.31856
		C40.87787,10.7199,41,10.15755,41,9.56656c0-2.47083-2.02502-4.49246-4.5-4.49246h-6c-0.1723,0-0.33594,0.03199-0.50336,0.05106
		c-0.12726-0.03504-0.25867-0.05984-0.39703-0.05984c-0.54785,0-1.1084-0.01462-1.68848-0.03022
		C27.2832,5.01852,26.61621,5,25.90723,5c-2.16504,0-4.73145,0.16574-7.84863,1.02757
		c-1.82117,0.50337-3.22064,1.28495-4.29053,2.10907c-0.15204-0.05179-0.31232-0.0861-0.48193-0.0861H8.13281
		C6.40527,8.05055,5,9.45347,5,11.17811v14.68678c0,1.72465,1.40527,3.12756,3.13281,3.12756h4.79102
		c0.18799,0.12138,0.49268,0.4977,0.59814,0.62834c0.0835,0.10285,0.1543,0.18865,0.20801,0.24812
		c2.30322,2.5314,3.83154,3.28648,6.14502,4.42861c0.77051,0.38071,1.65234,0.81553,2.71387,1.39317
		c0.3125,0.17012,0.80664,0.59861,1.2832,1.01295c0.57129,0.49575,1.21777,1.0573,1.88477,1.47409
		c0.89844,0.56107,2.19922,1.8392,2.59473,2.4534c0.8418,1.30981,1.13086,2.33154,1.12012,2.85069
		c-0.05371,2.6752,1.61426,3.31914,2.61328,3.46489c1.3418,0.19938,2.67383-0.16623,3.63867-1.00368
		c1.2832-1.11337,1.92578-2.9784,1.90918-5.54295c-0.02313-3.44454-1.81036-6.38906-3.30554-8.37121H39.5
		c2.47498,0,4.5-2.02157,4.5-4.49246c0-0.59093-0.12213-1.15334-0.33228-1.67139C45.57764,25.34581,47,23.6119,47,21.54646
		C47,19.48107,45.57764,17.74711,43.66772,17.2279z"/>
</g>
</svg>
