<?xml version="1.0" encoding="utf-8"?>
<!-- Generator: Adobe Illustrator 18.0.0, SVG Export Plug-In . SVG Version: 6.00 Build 0)  -->
<!DOCTYPE svg PUBLIC "-//W3C//DTD SVG 1.1//EN" "http://www.w3.org/Graphics/SVG/1.1/DTD/svg11.dtd">
<svg version="1.1" id="Layer_1" xmlns="http://www.w3.org/2000/svg" xmlns:xlink="http://www.w3.org/1999/xlink" x="0px" y="0px"
	 width="52px" height="52px" viewBox="0 0 52 52" enable-background="new 0 0 52 52" xml:space="preserve">
<g id="_x35_1._Statement_Paid-filled">
	<g>
		<path d="M26,14c-6.62744,0-12,5.37256-12,12c0,6.62738,5.37256,12,12,12s12-5.37262,12-12C38,19.37256,32.62744,14,26,14z
			 M33.66406,21.96436l-8.39062,9.99951C24.97656,32.31738,24.55176,32.5,24.12305,32.5c-0.00446,0-0.00873-0.0025-0.01318-0.00262
			C24.10669,32.49744,24.10376,32.5,24.10059,32.5c-0.38379,0-0.76758-0.14648-1.06055-0.43945l-4.61523-4.61523
			c-0.58594-0.58545-0.58594-1.53564,0-2.12109c0.58594-0.58594,1.53516-0.58594,2.12109,0l3.4704,3.4704l7.34894-8.75897
			c0.53223-0.63379,1.47754-0.71777,2.11328-0.18457C34.11328,20.3833,34.19629,21.32959,33.66406,21.96436z"/>
		<path d="M45.5,24.5c-0.82843,0-1.5,0.67157-1.5,1.5c0,9.92523-8.07477,18-18,18S8,35.92523,8,26S16.07477,8,26,8
			c5.72516,0,10.82904,2.69128,14.12787,6.87036l-2.3324,0.00134c-0.82739,0.00262-1.50055,0.67267-1.49884,1.50073
			c-0.00012,0.82874,0.67163,1.49969,1.50037,1.49933l6.00006-0.00348c0.073-0.00012,0.14429-0.00543,0.21484-0.01562
			c0.72687-0.10455,1.28516-0.72949,1.284-1.48511l-0.00299-6.00018c0.00018-0.82825-0.67163-1.49969-1.50031-1.49933
			c-0.82544,0.00281-1.49976,0.67157-1.49884,1.50073l0.00122,2.40552C38.44562,8.03528,32.58136,5,26,5C14.40198,5,5,14.40198,5,26
			s9.40198,21,21,21c11.5979,0,21-9.40198,21-21C47,25.17157,46.32843,24.5,45.5,24.5z"/>
	</g>
</g>
</svg>
