<?xml version="1.0" encoding="utf-8"?>
<!-- Generator: Adobe Illustrator 18.0.0, SVG Export Plug-In . SVG Version: 6.00 Build 0)  -->
<!DOCTYPE svg PUBLIC "-//W3C//DTD SVG 1.1//EN" "http://www.w3.org/Graphics/SVG/1.1/DTD/svg11.dtd">
<svg version="1.1" id="Layer_1" xmlns="http://www.w3.org/2000/svg" xmlns:xlink="http://www.w3.org/1999/xlink" x="0px" y="0px"
	 width="52px" height="52px" viewBox="0 0 52 52" enable-background="new 0 0 52 52" xml:space="preserve">
<g id="_x34_1._Right_-filled">
	<path d="M37.01758,24.23242l-18.5-18.5c-0.97656-0.97656-2.55859-0.97656-3.53516,0c-0.97656,0.97607-0.97656,2.55908,0,3.53516
		L31.71484,26L14.98242,42.73242c-0.97656,0.97656-0.97656,2.55859,0,3.53516C15.4707,46.75586,16.11035,47,16.75,47
		s1.2793-0.24414,1.76758-0.73242l18.5-18.5C37.99414,26.7915,37.99414,25.2085,37.01758,24.23242z"/>
</g>
</svg>
